<?xml version="1.0" encoding="UTF-8" standalone="no"?>
<svg
   xmlns:dc="http://purl.org/dc/elements/1.1/"
   xmlns:cc="http://creativecommons.org/ns#"
   xmlns:rdf="http://www.w3.org/1999/02/22-rdf-syntax-ns#"
   xmlns:svg="http://www.w3.org/2000/svg"
   xmlns="http://www.w3.org/2000/svg"
   xmlns:sodipodi="http://sodipodi.sourceforge.net/DTD/sodipodi-0.dtd"
   xmlns:inkscape="http://www.inkscape.org/namespaces/inkscape"
   width="79.414093"
   height="79.359398"
   overflow="hidden"
   version="1.1"
   id="svg145"
   sodipodi:docname="demography.svg"
   style="overflow:hidden"
   inkscape:version="0.92.5 (2060ec1f9f, 2020-04-08)">
  <metadata
     id="metadata149">
    <rdf:RDF>
      <cc:Work
         rdf:about="">
        <dc:format>image/svg+xml</dc:format>
        <dc:type
           rdf:resource="http://purl.org/dc/dcmitype/StillImage" />
      </cc:Work>
    </rdf:RDF>
  </metadata>
  <sodipodi:namedview
     pagecolor="#ffffff"
     bordercolor="#666666"
     borderopacity="1"
     objecttolerance="10"
     gridtolerance="10"
     guidetolerance="10"
     inkscape:pageopacity="0"
     inkscape:pageshadow="2"
     inkscape:window-width="1848"
     inkscape:window-height="1016"
     id="namedview147"
     showgrid="false"
     inkscape:zoom="2.8095238"
     inkscape:cx="39.91409"
     inkscape:cy="40.5433"
     inkscape:window-x="72"
     inkscape:window-y="27"
     inkscape:window-maximized="1"
     inkscape:current-layer="svg145" />
  <defs
     id="defs17">
    <clipPath
       id="clip0">
      <rect
         x="750"
         y="318"
         width="81"
         height="84"
         id="rect2" />
    </clipPath>
    <clipPath
       id="clip1">
      <rect
         x="750"
         y="318"
         width="80"
         height="84"
         id="rect5" />
    </clipPath>
    <clipPath
       id="clip2">
      <rect
         x="750"
         y="318"
         width="80"
         height="84"
         id="rect8" />
    </clipPath>
    <clipPath
       id="clip3">
      <rect
         x="745"
         y="326"
         width="89"
         height="72"
         id="rect11" />
    </clipPath>
    <clipPath
       id="clip4">
      <rect
         x="745"
         y="326"
         width="89"
         height="72"
         id="rect14" />
    </clipPath>
  </defs>
  <g
     clip-path="url(#clip0)"
     transform="translate(-750.58591,-321.1839)"
     id="g143">
    <g
       clip-path="url(#clip1)"
       id="g141">
      <g
         clip-path="url(#clip2)"
         id="g139">
        <g
           clip-path="url(#clip3)"
           id="g135">
          <g
             clip-path="url(#clip4)"
             id="g133">
            <g
               id="g131">
              <path
                 d="m 68.3253,29.2062 c 0.3856,0.1199 0.7957,0.1845 1.2204,0.1845 0.4253,0 0.8349,-0.0646 1.2205,-0.1845 0.3855,-0.1199 0.7471,-0.2956 1.0746,-0.5162 0.1522,-0.1033 0.2945,-0.2198 0.4321,-0.3417 0.844,-0.7521 1.3785,-1.8438 1.3785,-3.0628 0,-0.4252 -0.0646,-0.8347 -0.1845,-1.2204 C 73.3871,23.8082 73.2824,23.562 73.1562,23.3292 73.093,23.2127 73.024,23.0997 72.9507,22.991 72.5817,22.4454 72.0849,21.9927 71.5031,21.6762 70.9217,21.3606 70.2552,21.181 69.5467,21.181 c -0.6421,0 -1.2469,0.1516 -1.7876,0.4139 0.1761,0.5065 0.2945,1.0399 0.3429,1.5933 0.4112,-0.2843 0.9078,-0.4526 1.4446,-0.4526 1.4065,0 2.5509,1.1441 2.5509,2.5499 0,1.4059 -1.144,2.551 -2.5509,2.551 -0.8769,0 -1.6521,-0.4453 -2.1111,-1.1216 -0.2299,0.463 -0.506,0.8985 -0.8329,1.2928 0.5402,0.301 1.0355,0.6729 1.4695,1.1064 0.0842,0.0314 0.1669,0.0652 0.253,0.092 z"
                 transform="matrix(1,0,0,1.00179,745.845,326.904)"
                 id="path19"
                 inkscape:connector-curvature="0"
                 style="fill:#ffffff" />
              <path
                 d="m 71.2942,30.484 h -2.1706 c 0.2827,0.4835 0.5049,1.0047 0.6596,1.5552 h 1.511 c 1.4142,0 2.5656,1.1514 2.5656,2.5655 v 6.1687 c 0,0.2335 -0.1977,0.4316 -0.4316,0.4316 l -0.2163,-5e-4 h -1.5547 v 7.5169 c 0,0.2335 -0.1976,0.4316 -0.4316,0.4316 h -3.3574 c -0.0778,0 -0.1477,-0.0278 -0.2119,-0.066 -5e-4,0.5456 -0.1067,1.0663 -0.2911,1.5477 0.1614,0.0426 0.3283,0.0729 0.503,0.0729 h 3.3574 c 0.5467,0 1.0434,-0.2235 1.403,-0.5838 0.3597,-0.3597 0.5838,-0.8563 0.5838,-1.4029 v -5.9623 h 0.2167 c 1.0923,0 1.9868,-0.8934 1.9868,-1.9862 v -6.1686 c 0,-0.7086 -0.1811,-1.3765 -0.4996,-1.96 -0.7003,-1.2835 -2.0642,-2.1599 -3.6222,-2.1599 z"
                 transform="matrix(1,0,0,1.00179,745.845,326.904)"
                 id="path21"
                 inkscape:connector-curvature="0"
                 style="fill:#ffffff" />
              <path
                 d="m 59.5361,27.7505 c 0.5872,0.2868 1.2445,0.4527 1.9417,0.4527 0.1532,0 0.3044,-0.0078 0.4532,-0.023 0.298,-0.0303 0.5872,-0.09 0.8651,-0.1767 0.278,-0.0861 0.5438,-0.1991 0.7948,-0.3362 0.2324,-0.1262 0.4502,-0.2745 0.6552,-0.4384 0.46,-0.3685 0.8466,-0.825 1.1304,-1.3462 0.137,-0.2511 0.2496,-0.5173 0.3362,-0.7947 0.0861,-0.2779 0.1458,-0.5666 0.1767,-0.8651 0.0156,-0.1489 0.023,-0.3005 0.023,-0.4532 0,-0.7653 -0.1939,-1.4851 -0.5354,-2.113 -0.4095,-0.7541 -1.031,-1.3755 -1.7856,-1.7857 -0.2511,-0.1369 -0.5173,-0.2495 -0.7948,-0.3361 -0.2779,-0.0861 -0.5666,-0.1458 -0.8651,-0.1767 -0.1488,-0.0156 -0.3005,-0.023 -0.4532,-0.023 -0.6346,0 -1.2375,0.1361 -1.7831,0.3759 0.2055,0.5318 0.3499,1.0931 0.4218,1.678 0.4032,-0.2315 0.8642,-0.3748 1.3619,-0.3748 1.5189,0 2.754,1.2356 2.754,2.754 0,1.5189 -1.2356,2.754 -2.754,2.754 -0.8481,0 -1.5982,-0.3935 -2.1038,-0.9979 -0.2681,0.5158 -0.5989,0.9929 -0.9802,1.425 0.052,0.0505 0.1058,0.0984 0.1606,0.1459 0.346,0.1909 0.6714,0.4125 0.9807,0.6552 z"
                 transform="matrix(1,0,0,1.00179,745.845,326.904)"
                 id="path23"
                 inkscape:connector-curvature="0"
                 style="fill:#ffffff" />
              <path
                 d="m 67.8155,40.4958 v -6.6626 c 0,-0.153 -0.0079,-0.3043 -0.0231,-0.453 -0.1219,-1.1926 -0.7203,-2.2505 -1.6001,-2.9773 -0.7702,-0.6361 -1.7558,-1.0193 -2.8264,-1.0193 h -2.3034 c 0.3474,0.5158 0.6229,1.081 0.827,1.6794 h 1.4759 c 1.5276,0 2.7711,1.243 2.7711,2.7701 v 6.6626 c 0,0.2525 -0.2134,0.4659 -0.4659,0.4659 h -1.9138 v 8.1183 c 0,0.2525 -0.2133,0.4659 -0.4659,0.4659 l -3.6254,-5e-4 c -0.005,0 -0.0093,-0.0029 -0.0143,-0.0029 v 0.6116 c 0,0.3641 -0.047,0.7165 -0.1276,1.0565 0.0474,0.0035 0.0934,0.0142 0.1419,0.0142 h 3.6254 c 0.1474,0 0.2917,-0.0147 0.4307,-0.0435 0.2785,-0.0578 0.5383,-0.1688 0.7658,-0.3239 0.5711,-0.3867 0.9479,-1.0404 0.9479,-1.7778 v -6.4388 h 0.2344 c 0.4429,0 0.8545,-0.1355 1.1974,-0.3675 0.5716,-0.3866 0.9485,-1.0403 0.9485,-1.7774 z"
                 transform="matrix(1,0,0,1.00179,745.845,326.904)"
                 id="path25"
                 inkscape:connector-curvature="0"
                 style="fill:#ffffff" />
              <path
                 d="m 53.0708,19.2257 c 1.674,0 3.0353,1.3618 3.0353,3.0354 0,1.674 -1.3619,3.0353 -3.0353,3.0353 -0.921,0 -1.7372,-0.4208 -2.294,-1.0707 -0.2491,0.6 -0.5775,1.1569 -0.966,1.6668 0.1473,0.1326 0.3015,0.2574 0.4644,0.3719 0.1502,0.1052 0.3044,0.205 0.4663,0.2927 0.1381,0.0748 0.2814,0.1438 0.4273,0.2055 0.5843,0.247 1.2267,0.3836 1.9016,0.3836 0.6748,0 1.3174,-0.1371 1.9016,-0.3836 0.1459,-0.0617 0.2883,-0.1307 0.4272,-0.2055 0.162,-0.0877 0.3167,-0.1875 0.4664,-0.2927 0.62,-0.434 1.1372,-1.0061 1.5003,-1.6746 0.3759,-0.6924 0.5903,-1.4856 0.5903,-2.3292 0,-2.6988 -2.1875,-4.8863 -4.8862,-4.8863 -0.9137,0 -1.7656,0.2555 -2.4977,0.692 0.2813,0.5716 0.4982,1.1808 0.6263,1.8224 0.5183,-0.4082 1.1627,-0.6631 1.8723,-0.6631 z"
                 transform="matrix(1,0,0,1.00179,745.845,326.904)"
                 id="path27"
                 inkscape:connector-curvature="0"
                 style="fill:#ffffff" />
              <path
                 d="m 59.6501,42.0141 c 0.2555,-0.3773 0.4057,-0.8319 0.4057,-1.3197 v -7.3422 c 0,-0.6743 -0.138,-1.3182 -0.3871,-1.904 -0.2491,-0.5862 -0.6087,-1.1147 -1.0535,-1.5595 -0.1111,-0.1111 -0.2271,-0.2168 -0.3484,-0.3171 -0.8491,-0.7007 -1.9349,-1.123 -3.1147,-1.123 h -3.3673 c 0.4776,0.5529 0.8755,1.1749 1.1775,1.8506 h 2.1902 c 1.6838,0 3.0536,1.3703 3.0536,3.053 v 7.3422 c 0,0.2784 -0.235,0.5134 -0.5134,0.5134 h -0.2584 l -1.8516,4e-4 v 8.9468 c 0,0.2784 -0.2349,0.5133 -0.5133,0.5133 h -3.996 c -0.1101,0 -0.2076,-0.0441 -0.2927,-0.1052 v 0.9528 c 0,0.3302 -0.0337,0.6522 -0.0974,0.964 0.1278,0.0215 0.257,0.0401 0.3901,0.0401 h 3.996 c 0.3249,0 0.6356,-0.0666 0.9174,-0.1864 0.8476,-0.3597 1.4461,-1.2023 1.4461,-2.1777 v -7.097 h 0.2584 c 0.4873,0 0.9419,-0.1492 1.3197,-0.4057 0.2511,-0.1697 0.4688,-0.388 0.6391,-0.639 z"
                 transform="matrix(1,0,0,1.00179,745.845,326.904)"
                 id="path29"
                 inkscape:connector-curvature="0"
                 style="fill:#ffffff" />
              <path
                 d="m 18.1446,29.3903 c 0.5206,0 1.0159,-0.1007 1.4739,-0.2769 0.4341,-0.4336 0.9298,-0.8045 1.4695,-1.1064 -0.3269,-0.3944 -0.6024,-0.83 -0.8329,-1.2928 -0.459,0.6762 -1.2341,1.1215 -2.1111,1.1215 -1.4064,0 -2.5499,-1.144 -2.5499,-2.5509 0,-1.4064 1.1441,-2.55 2.5499,-2.55 0.5369,0 1.0335,0.1684 1.4445,0.4527 0.0485,-0.5534 0.1669,-1.0869 0.3431,-1.5933 -0.5407,-0.2623 -1.1466,-0.4141 -1.788,-0.4141 -1.4172,0 -2.6665,0.7179 -3.404,1.8102 -0.0739,0.1096 -0.1424,0.2221 -0.2055,0.3381 -0.1262,0.2329 -0.231,0.4791 -0.3108,0.7359 -0.1198,0.3857 -0.1844,0.7958 -0.1844,1.2205 0,1.2194 0.5343,2.3106 1.378,3.0628 0.0391,0.0343 0.0758,0.0724 0.116,0.1052 0.71,0.5858 1.6198,0.9376 2.6117,0.9376 z"
                 transform="matrix(1,0,0,1.00179,745.845,326.904)"
                 id="path31"
                 inkscape:connector-curvature="0"
                 style="fill:#ffffff" />
              <path
                 d="m 19.8245,49.1522 h -3.3574 c -0.2335,0 -0.4316,-0.1977 -0.4316,-0.4316 v -7.5169 h -1.772 c -0.2335,0 -0.4316,-0.1977 -0.4316,-0.4316 v -6.1687 c 0,-1.4142 1.1514,-2.5655 2.5656,-2.5655 h 1.511 c 0.1541,-0.5506 0.3768,-1.0713 0.6596,-1.5552 h -2.1707 c -1.5581,0 -2.9214,0.8764 -3.6212,2.1604 -0.318,0.5843 -0.4991,1.2523 -0.4991,1.9608 v 6.1687 c 0,0.5466 0.2236,1.0423 0.5838,1.4029 0.3596,0.3598 0.8564,0.5838 1.403,0.5838 h 0.2163 v 5.9623 c 0,0.5466 0.2235,1.0432 0.5837,1.403 0.3598,0.3597 0.8564,0.5837 1.403,0.5837 h 3.3574 c 0.1747,0 0.3416,-0.0303 0.503,-0.0729 -0.1844,-0.482 -0.2896,-1.0027 -0.2911,-1.5477 -0.0641,0.0372 -0.134,0.0645 -0.2119,0.0645 z"
                 transform="matrix(1,0,0,1.00179,745.845,326.904)"
                 id="path33"
                 inkscape:connector-curvature="0"
                 style="fill:#ffffff" />
              <path
                 d="m 21.9792,25.0885 c 0.0861,0.2779 0.1992,0.5436 0.3361,0.7946 0.2834,0.5222 0.67,0.9778 1.1305,1.3463 0.205,0.164 0.4228,0.3122 0.6552,0.4384 0.6278,0.3411 1.3482,0.5354 2.113,0.5354 0.6973,0 1.3544,-0.1655 1.9417,-0.4527 0.3088,-0.2422 0.6347,-0.4643 0.9816,-0.6537 0.0539,-0.0475 0.1087,-0.0955 0.1606,-0.1458 -0.3817,-0.4322 -0.7121,-0.9093 -0.9802,-1.425 -0.506,0.6048 -1.2556,0.9982 -2.1037,0.9982 -1.519,0 -2.754,-1.2356 -2.754,-2.754 0,-1.5189 1.2356,-2.754 2.754,-2.754 0.4972,0 0.9581,0.1429 1.3618,0.3748 0.0725,-0.5843 0.2163,-1.1456 0.4218,-1.678 -0.5456,-0.2407 -1.1485,-0.3759 -1.7831,-0.3759 -2.4483,0 -4.4335,1.9849 -4.4335,4.4336 0,0.1532 0.0078,0.3044 0.023,0.4532 0.0283,0.298 0.088,0.5877 0.1751,0.8646 z"
                 transform="matrix(1,0,0,1.00179,745.845,326.904)"
                 id="path35"
                 inkscape:connector-curvature="0"
                 style="fill:#ffffff" />
              <path
                 d="m 28.04,49.5431 c -0.005,0 -0.0084,0.0029 -0.0133,0.0029 h -3.626 c -0.2526,0 -0.4659,-0.2134 -0.4659,-0.4659 V 40.9618 H 22.021 c -0.2525,0 -0.4658,-0.2134 -0.4658,-0.4659 v -6.6624 c 0,-1.5278 1.2429,-2.7703 2.7701,-2.7703 h 1.4769 c 0.204,-0.5984 0.48,-1.1636 0.827,-1.6794 h -2.3035 c -2.2944,0 -4.1981,1.7603 -4.4266,3.9965 -0.0157,0.1492 -0.0231,0.3005 -0.0231,0.4532 v 6.6624 c 0,1.1799 0.9656,2.1453 2.1454,2.1453 h 0.2344 V 49.08 c 0,0.8848 0.5432,1.6492 1.3125,1.976 0.2559,0.1086 0.5383,0.1688 0.8329,0.1688 h 3.6254 c 0.0485,0 0.094,-0.0112 0.141,-0.0142 C 28.0868,50.871 28.04,50.5182 28.04,50.1541 Z"
                 transform="matrix(1,0,0,1.00179,745.845,326.904)"
                 id="path37"
                 inkscape:connector-curvature="0"
                 style="fill:#ffffff" />
              <path
                 d="m 31.8244,26.2648 c 0.1502,0.1052 0.3044,0.205 0.4664,0.2926 0.138,0.0749 0.2813,0.1439 0.4271,0.2056 0.5844,0.247 1.2269,0.3836 1.9017,0.3836 0.6749,0 1.3174,-0.1371 1.9017,-0.3836 0.1458,-0.0617 0.2882,-0.1307 0.4272,-0.2056 0.1619,-0.0876 0.3166,-0.1874 0.4664,-0.2926 0.1629,-0.1145 0.317,-0.2393 0.4644,-0.3719 -0.3881,-0.5099 -0.7169,-1.0673 -0.966,-1.6676 -0.5569,0.6498 -1.3737,1.0706 -2.2946,1.0706 -1.674,0 -3.0353,-1.3618 -3.0353,-3.0353 0,-1.674 1.3618,-3.0354 3.0353,-3.0354 0.7091,0 1.3541,0.2544 1.8708,0.6636 0.1283,-0.6421 0.345,-1.2508 0.6265,-1.8224 -0.7316,-0.4365 -1.5837,-0.6919 -2.4978,-0.6919 -2.6987,0 -4.8861,2.1873 -4.8861,4.8862 0,0.8431 0.2134,1.6367 0.5901,2.3292 0.3651,0.669 0.8823,1.2415 1.5023,1.6751 z"
                 transform="matrix(1,0,0,1.00179,745.845,326.904)"
                 id="path39"
                 inkscape:connector-curvature="0"
                 style="fill:#ffffff" />
              <path
                 d="m 36.9106,50.5628 c -0.0847,0.0616 -0.1826,0.1052 -0.2927,0.1052 h -3.996 c -0.2784,0 -0.5134,-0.2349 -0.5134,-0.5133 v -8.9468 h -2.109 c -0.2785,0 -0.5134,-0.2349 -0.5134,-0.5133 v -7.3427 c 0,-1.6837 1.3703,-3.053 3.0535,-3.053 h 2.1903 c 0.3015,-0.6758 0.7003,-1.2977 1.1775,-1.8506 h -3.3683 c -1.1798,0 -2.2662,0.4223 -3.1147,1.1229 -0.1213,0.1004 -0.2378,0.2061 -0.3484,0.3172 -0.4438,0.4438 -0.8044,0.9728 -1.0535,1.5595 -0.0627,0.1468 -0.118,0.2965 -0.1655,0.4497 -0.1438,0.46 -0.2216,0.9484 -0.2216,1.4543 v 7.3422 c 0,1.2996 1.0644,2.364 2.364,2.364 h 0.2584 v 7.0961 c 0,1.2997 1.0644,2.364 2.364,2.364 h 3.996 c 0.1331,0 0.2623,-0.0181 0.39,-0.0401 -0.0636,-0.3117 -0.0973,-0.6337 -0.0973,-0.964 l -10e-4,-0.9513 z"
                 transform="matrix(1,0,0,1.00179,745.845,326.904)"
                 id="path41"
                 inkscape:connector-curvature="0"
                 style="fill:#ffffff" />
              <path
                 d="m 40.1112,25.0985 c 0.2912,0.2911 0.6186,0.5432 0.9709,0.7599 0.8045,0.4963 1.7489,0.7869 2.7638,0.7869 0.7296,0 1.424,-0.1477 2.0562,-0.4155 0.2471,-0.1046 0.482,-0.2324 0.7081,-0.3719 0.9303,-0.573 1.6731,-1.4221 2.1023,-2.4383 0.2671,-0.6323 0.4153,-1.3267 0.4153,-2.0563 0,-1.4583 -0.5915,-2.7785 -1.5468,-3.7346 -0.4776,-0.4777 -1.0467,-0.8642 -1.6789,-1.1315 -0.6322,-0.2676 -1.3267,-0.4153 -2.0562,-0.4153 -2.9171,0 -5.282,2.3649 -5.282,5.2819 0,0.7297 0.1477,1.424 0.4153,2.0563 0.2673,0.6317 0.6539,1.2008 1.132,1.6784 z m 3.7347,-7.0163 c 1.809,0 3.281,1.472 3.281,3.2811 0,1.809 -1.472,3.281 -3.281,3.281 -1.8091,0 -3.281,-1.472 -3.281,-3.281 0,-1.8091 1.4719,-3.2811 3.281,-3.2811 z"
                 transform="matrix(1,0,0,1.00179,745.845,326.904)"
                 id="path43"
                 inkscape:connector-curvature="0"
                 style="fill:#ffffff" />
              <path
                 d="m 51.3959,41.2888 v -7.9363 c 0,-2.0044 -1.1275,-3.7587 -2.7797,-4.659 -0.7505,-0.4091 -1.6099,-0.6426 -2.521,-0.6426 h -4.4967 c -2.9155,0 -5.3016,2.3852 -5.3016,5.3016 v 7.9363 c 0,1.406 1.15,2.5559 2.5559,2.5559 h 0.2784 v 7.6705 c 0,1.4059 1.1499,2.5557 2.5559,2.5557 h 4.3194 c 0.3513,0 0.6865,-0.0714 0.9918,-0.2011 0.9161,-0.3895 1.5631,-1.2997 1.5631,-2.3537 l -5e-4,-7.6715 h 0.2784 c 0.7028,0 1.3418,-0.2877 1.8052,-0.7507 0.464,-0.4639 0.7512,-1.1025 0.7512,-1.8052 z m -2.0005,0 c 0,0.3009 -0.254,0.555 -0.555,0.555 h -2.2793 v 9.6714 c 0,0.301 -0.2539,0.5549 -0.555,0.5549 h -4.3193 c -0.301,0 -0.555,-0.2539 -0.555,-0.5549 v -9.6714 h -2.2793 c -0.3009,0 -0.555,-0.2541 -0.555,-0.555 l 5e-4,-7.9363 c 0,-1.8199 1.4808,-3.3007 3.3007,-3.3007 h 4.4967 c 1.8199,0 3.3008,1.4807 3.3008,3.3007 v 7.9363 z"
                 transform="matrix(1,0,0,1.00179,745.845,326.904)"
                 id="path45"
                 inkscape:connector-curvature="0"
                 style="fill:#ffffff" />
              <path
                 d="M 2.35088,-0.140932 C 2.22952,-0.0782958 2.10278,-0.0313183 1.97115,0 1.84049,0.0322967 1.70348,0.0489342 1.5601,0.0489342 c -0.42572,0 -0.762886,-0.118422 -1.011967,-0.3562512 -0.24957,-0.238796 -0.373865,-0.561777 -0.373865,-0.968913 0,-0.40812 0.124294,-0.73108 0.373865,-0.96892 0.249081,-0.23879 0.586247,-0.3582 1.011967,-0.3582 0.14338,0 0.28041,0.01664 0.41105,0.04893 0.13164,0.03132 0.25838,0.07829 0.37973,0.14094 v 0.5285 C 2.22805,-1.96719 2.10718,-2.02787 1.98876,-2.06702 1.86985,-2.10617 1.74458,-2.12574 1.61294,-2.12574 c -0.23489,0 -0.41986,0.07585 -0.55394,0.22706 -0.134571,0.15022 -0.201617,0.35772 -0.201617,0.62246 0,0.26376 0.067041,0.471238 0.201617,0.622455 0.13408,0.150228 0.31905,0.225104 0.55394,0.225104 0.13164,0 0.25691,-0.018596 0.37582,-0.056764 0.11842,-0.039148 0.2393,-0.100316 0.36212,-0.184002 z"
                 transform="matrix(1,0,0,1.00179,754.614,407.725)"
                 id="path47"
                 inkscape:connector-curvature="0"
                 style="fill:#ffffff" />
              <path
                 d="M 1.7205,-1.39567 C 1.6657,-1.42013 1.61138,-1.43873 1.55804,-1.45048 1.50568,-1.4632 1.45283,-1.47005 1.39949,-1.47005 c -0.15806,0 -0.27942,0.05089 -0.36407,0.15268 -0.085146,0.10081 -0.127227,0.24468 -0.127227,0.432584 V -4.38456e-5 H 0.295532 V -1.91823 h 0.612661 v 0.31514 c 0.078296,-0.12527 0.168337,-0.2163 0.270107,-0.27403 0.10277,-0.05872 0.2256,-0.08809 0.368,-0.08809 0.02055,0 0.04306,0.00147 0.06655,0.00391 0.02447,0.00148 0.0597,0.0049 0.1057,0.0098 z"
                 transform="matrix(1,0,0,1.00179,757.189,407.725)"
                 id="path49"
                 inkscape:connector-curvature="0"
                 style="fill:#ffffff" />
              <path
                 d="m 2.20994,-0.964993 v 0.17616 H 0.775191 c 0.015659,0.143864 0.067529,0.251523 0.156591,0.322967 0.088568,0.071934 0.213358,0.107657 0.373868,0.107657 0.12918,0 0.26082,-0.018595 0.39538,-0.056764 0.13555,-0.039148 0.27452,-0.096891 0.41692,-0.174204 v 0.471729 C 1.97311,-0.0626416 1.82826,-0.021537 1.68341,0.0058678 1.53856,0.0342497 1.39371,0.0489305 1.24886,0.0489305 c -0.347431,0 -0.617558,-0.0880822 -0.810366,-0.2642515 -0.191818,-0.17616 -0.287741,-0.423286 -0.287741,-0.741856 0,-0.313183 0.094445,-0.558833 0.28382,-0.737933 0.188887,-0.18009 0.448728,-0.27012 0.779047,-0.27012 0.30144,0 0.54268,0.09152 0.72423,0.27404 0.18106,0.18155 0.27208,0.42377 0.27208,0.726196 z M 1.57967,-1.16856 c 0,-0.11598 -0.03425,-0.20944 -0.10178,-0.27991 -0.06802,-0.07145 -0.15659,-0.10766 -0.26621,-0.10766 -0.11891,0 -0.215319,0.03328 -0.289693,0.09982 -0.074376,0.06656 -0.120869,0.16247 -0.13898,0.28775 z"
                 transform="matrix(1,0,0,1.00179,758.918,407.725)"
                 id="path51"
                 inkscape:connector-curvature="0"
                 style="fill:#ffffff" />
              <path
                 d="m 1.15487,-0.863207 c -0.1282,0 -0.224615,0.021531 -0.289695,0.064592 -0.064105,0.043063 -0.095912,0.107168 -0.095912,0.191819 0,0.078296 0.025935,0.139955 0.078296,0.184001 0.05187,0.043063 0.123805,0.064593 0.215321,0.064593 0.11598,0 0.21335,-0.041104 0.29165,-0.123316 C 1.4338,-0.564707 1.47392,-0.66845 1.47392,-0.792747 V -0.863213 Z M 2.09051,-1.09419 V 0 H 1.47392 v -0.283819 c -0.0822,0.116465 -0.17517,0.2011262 -0.27795,0.254455 -0.10325,0.0518706 -0.228523,0.0782957 -0.375818,0.0782957 -0.198671,0 -0.359673,-0.0572536 -0.48348,-0.1722507 -0.124295,-0.115975 -0.185956,-0.266694 -0.185956,-0.452162 0,-0.224126 0.076828,-0.388547 0.230979,-0.493269 0.155126,-0.10569 0.398331,-0.15854 0.730105,-0.15854 h 0.36211 v -0.04893 c 0,-0.09641 -0.03865,-0.16687 -0.11548,-0.2114 -0.07732,-0.04551 -0.19671,-0.06851 -0.35821,-0.06851 -0.132124,0 -0.254454,0.01321 -0.367988,0.03915 -0.112551,0.02642 -0.216786,0.06556 -0.313184,0.11744 v -0.46782 c 0.130172,-0.03132 0.261307,-0.0553 0.393433,-0.07243 0.133103,-0.01663 0.266206,-0.02544 0.399309,-0.02544 0.34547,0 0.59505,0.06851 0.74773,0.20553 0.15366,0.13603 0.23098,0.35771 0.23098,0.66551 z"
                 transform="matrix(1,0,0,1.00179,761.297,407.725)"
                 id="path53"
                 inkscape:connector-curvature="0"
                 style="fill:#ffffff" />
              <path
                 d="m 0.964993,-2.46237 v 0.54416 H 1.59723 v 0.43846 H 0.964993 v 0.814273 c 0,0.089062 0.017615,0.148762 0.052847,0.180081 0.03524,0.031319 0.10473,0.046977 0.20944,0.046977 H 1.54243 V 3.7582e-5 H 1.01784 C 0.775126,3.7582e-5 0.602875,-0.0498763 0.50109,-0.150679 0.400284,-0.252463 0.350374,-0.423737 0.350374,-0.665477 V -1.47975 H 0.0469749 V -1.91821 H 0.350374 v -0.54416 z"
                 transform="matrix(1,0,0,1.00179,763.665,407.725)"
                 id="path55"
                 inkscape:connector-curvature="0"
                 style="fill:#ffffff" />
              <path
                 d="m 2.20994,-0.964993 v 0.17616 H 0.775191 c 0.015659,0.143864 0.067529,0.251523 0.156591,0.322967 0.088568,0.071934 0.213358,0.107657 0.373868,0.107657 0.12918,0 0.26082,-0.018595 0.39538,-0.056764 0.13555,-0.039148 0.27452,-0.096891 0.41692,-0.174204 v 0.471729 C 1.97311,-0.0626416 1.82826,-0.021537 1.68341,0.0058678 1.53856,0.0342497 1.39371,0.0489305 1.24886,0.0489305 c -0.347431,0 -0.617558,-0.0880822 -0.810366,-0.2642515 -0.191818,-0.17616 -0.287741,-0.423286 -0.287741,-0.741856 0,-0.313183 0.094445,-0.558833 0.28382,-0.737933 0.188887,-0.18009 0.448728,-0.27012 0.779047,-0.27012 0.30144,0 0.54268,0.09152 0.72423,0.27404 0.18106,0.18155 0.27208,0.42377 0.27208,0.726196 z M 1.57967,-1.16856 c 0,-0.11598 -0.03425,-0.20944 -0.10178,-0.27991 -0.06802,-0.07145 -0.15659,-0.10766 -0.26621,-0.10766 -0.11891,0 -0.215319,0.03328 -0.289693,0.09982 -0.074376,0.06656 -0.120869,0.16247 -0.13898,0.28775 z"
                 transform="matrix(1,0,0,1.00179,765.341,407.725)"
                 id="path57"
                 inkscape:connector-curvature="0"
                 style="fill:#ffffff" />
              <path
                 d="M 1.59924,-1.63833 V -2.66595 H 2.21582 V -1.25274e-5 H 1.59924 V -0.277969 C 1.51556,-0.16444 1.42308,-0.0812522 1.32128,-0.0293766 1.21949,0.0224991 1.10108,0.0489192 0.966996,0.0489192 c -0.236352,0 -0.430138,-0.0939549 -0.581342,-0.2818652 -0.151693,-0.18791 -0.227058,-0.42916 -0.227058,-0.724229 0,-0.296055 0.07536,-0.538285 0.227058,-0.726195 0.151204,-0.18791 0.34499,-0.28187 0.581342,-0.28187 0.133104,0 0.250544,0.02692 0.352334,0.08025 0.10276,0.05383 0.19622,0.13604 0.27991,0.24664 z m -0.40323,1.242955 c 0.13017,0 0.22998,-0.047468 0.29947,-0.142887 0.069,-0.096401 0.10375,-0.235864 0.10375,-0.418888 0,-0.18252 -0.03475,-0.3215 -0.10375,-0.41692 -0.06948,-0.0964 -0.16931,-0.14484 -0.29947,-0.14484 -0.13066,0 -0.230479,0.04845 -0.299479,0.14484 -0.069489,0.09542 -0.103742,0.2344 -0.103742,0.41692 0,0.183012 0.034255,0.322478 0.103742,0.418888 0.068997,0.095423 0.168829,0.142887 0.299479,0.142887 z"
                 transform="matrix(1,0,0,1.00179,767.72,407.725)"
                 id="path59"
                 inkscape:connector-curvature="0"
                 style="fill:#ffffff" />
              <path
                 d="m 1.31537,-0.395387 c 0.13164,0 0.23196,-0.047468 0.30143,-0.142887 0.069,-0.096401 0.10374,-0.235864 0.10374,-0.418888 C 1.72054,-1.13968 1.6858,-1.27866 1.6168,-1.37409 1.54732,-1.47048 1.447,-1.51893 1.31537,-1.51893 c -0.13212,0 -0.23294,0.04845 -0.3034,0.14484 -0.069488,0.0969 -0.103741,0.23587 -0.103741,0.416928 0,0.181545 0.034255,0.320523 0.103741,0.416921 0.07046,0.096891 0.17128,0.144841 0.3034,0.144841 z M 0.908231,-1.63834 C 0.992888,-1.74893 1.08636,-1.83115 1.18815,-1.88498 1.2909,-1.93831 1.40932,-1.96523 1.54243,-1.96523 c 0.23733,0 0.4316,0.09396 0.5833,0.28187 0.1512,0.18791 0.22706,0.43014 0.22706,0.726195 0,0.295081 -0.07586,0.536319 -0.22706,0.724229 -0.1517,0.1879102 -0.34597,0.2818653 -0.5833,0.2818653 -0.13311,0 -0.25153,-0.0264252 -0.35428,-0.0782958 C 1.08636,-0.0827054 0.992891,-0.165401 0.908231,-0.277959 V -2.50546e-6 H 0.295569 V -2.66594 h 0.612662 z"
                 transform="matrix(1,0,0,1.00179,771.452,407.725)"
                 id="path61"
                 inkscape:connector-curvature="0"
                 style="fill:#ffffff" />
              <path
                 d="M 0.0430627,-1.91819 H 0.655724 L 1.17248,-0.61647 1.61093,-1.91819 H 2.2236 L 1.41715,0.182148 C 1.33591,0.394523 1.24148,0.543285 1.13333,0.628433 1.02469,0.714559 0.882782,0.757615 0.706622,0.757615 H 0.35037 V 0.354386 h 0.191819 c 0.104231,0 0.18008,-0.017127 0.227058,-0.050893 C 0.817202,0.270707 0.854394,0.211985 0.880818,0.127334 L 0.898434,0.0744838 Z"
                 transform="matrix(1,0,0,1.00179,773.963,407.725)"
                 id="path63"
                 inkscape:connector-curvature="0"
                 style="fill:#ffffff" />
              <path
                 d="m 1.48962,-2.12576 c -0.20113,0 -0.35723,0.07438 -0.46781,0.22314 -0.10962,0.14876 -0.164427,0.35771 -0.164427,0.62636 0,0.26914 0.054807,0.477606 0.164427,0.626368 0.11059,0.147784 0.26668,0.221181 0.46781,0.221181 0.2021,0 0.3587,-0.073402 0.46978,-0.221181 0.11059,-0.148762 0.16638,-0.357228 0.16638,-0.626368 0,-0.26865 -0.05579,-0.4776 -0.16638,-0.62636 C 1.84832,-2.05139 1.69172,-2.12576 1.48962,-2.12576 Z m 0,-0.47761 c 0.41105,0 0.73256,0.11745 0.965,0.35233 0.23342,0.2349 0.35037,0.55982 0.35037,0.97478 0,0.413991 -0.11695,0.737936 -0.35037,0.972823 -0.23245,0.2348875 -0.55395,0.3523312 -0.965,0.3523312 -0.41006,0 -0.731566,-0.1174437 -0.964988,-0.3523312 -0.23391,-0.234887 -0.350377,-0.558832 -0.350377,-0.972823 0,-0.41497 0.116466,-0.73988 0.350377,-0.97478 0.233422,-0.23488 0.554928,-0.35233 0.964988,-0.35233 z"
                 transform="matrix(1,0,0,1.00179,777.47,407.725)"
                 id="path65"
                 inkscape:connector-curvature="0"
                 style="fill:#ffffff" />
              <path
                 d="m 0.295569,-2.66594 h 0.612662 v 1.45242 L 1.61289,-1.91819 h 0.7125 L 1.38974,-1.03737 2.39976,5.01093e-5 H 1.65595 L 0.908219,-0.800521 V 5.01093e-5 H 0.295557 Z"
                 transform="matrix(1,0,0,1.00179,780.452,407.725)"
                 id="path67"
                 inkscape:connector-curvature="0"
                 style="fill:#ffffff" />
              <path
                 d="m 1.79291,-1.85755 v 0.46586 c -0.13066,-0.0548 -0.2574,-0.09591 -0.37972,-0.12332 -0.12283,-0.0274 -0.23831,-0.0411 -0.34646,-0.0411 -0.116468,0 -0.203084,0.01468 -0.260333,0.04307 -0.056275,0.02887 -0.084169,0.07389 -0.084169,0.13506 0,0.04844 0.021532,0.08563 0.064593,0.11156 0.043063,0.02643 0.119891,0.046 0.230979,0.05873 l 0.10766,0.01565 c 0.31416,0.04062 0.52555,0.10668 0.63419,0.197699 0.10815,0.091508 0.16247,0.234398 0.16247,0.428672 0,0.205035 -0.07585,0.359184 -0.22706,0.461945 -0.15022,0.10178477 -0.37484,0.1526833 -0.67334,0.1526833 -0.128206,0 -0.259843,-0.0097869 -0.395388,-0.0293616 C 0.491762,2.38019e-5 0.353273,-0.0298263 0.211364,-0.0704424 V -0.536308 c 0.121358,0.060189 0.245648,0.105208 0.373865,0.135057 0.129181,0.028871 0.26033,0.043063 0.393433,0.043063 0.119888,0 0.209938,-0.016149 0.270108,-0.048935 0.05971,-0.033765 0.09004,-0.083189 0.09004,-0.148762 0,-0.054807 -0.02103,-0.094933 -0.06263,-0.121359 C 1.2341,-0.704647 1.1514,-0.7252 1.02758,-0.73988 L 0.91993,-0.753583 C 0.646872,-0.787348 0.456031,-0.850474 0.346417,-0.943447 0.236802,-1.03593 0.181995,-1.17638 0.181995,-1.36429 c 0,-0.20357 0.068999,-0.35429 0.207479,-0.45217 0.139466,-0.09884 0.353307,-0.14876 0.642026,-0.14876 0.11206,0 0.22999,0.00931 0.35429,0.02741 0.12526,0.01712 0.26082,0.04404 0.40713,0.08025 z"
                 transform="matrix(1,0,0,1.00179,782.785,407.725)"
                 id="path69"
                 inkscape:connector-curvature="0"
                 style="fill:#ffffff" />
              <path
                 d="m 1.15487,-0.863207 c -0.1282,0 -0.224615,0.021531 -0.289695,0.064592 -0.064105,0.043063 -0.095912,0.107168 -0.095912,0.191819 0,0.078296 0.025935,0.139955 0.078296,0.184001 0.05187,0.043063 0.123805,0.064593 0.215321,0.064593 0.11598,0 0.21335,-0.041104 0.29165,-0.123316 C 1.4338,-0.564707 1.47392,-0.66845 1.47392,-0.792747 V -0.863213 Z M 2.09051,-1.09419 V 0 H 1.47392 v -0.283819 c -0.0822,0.116465 -0.17517,0.2011262 -0.27795,0.254455 -0.10325,0.0518706 -0.228523,0.0782957 -0.375818,0.0782957 -0.198671,0 -0.359673,-0.0572536 -0.48348,-0.1722507 -0.124295,-0.115975 -0.185956,-0.266694 -0.185956,-0.452162 0,-0.224126 0.076828,-0.388547 0.230979,-0.493269 0.155126,-0.10569 0.398331,-0.15854 0.730105,-0.15854 h 0.36211 v -0.04893 c 0,-0.09641 -0.03865,-0.16687 -0.11548,-0.2114 -0.07732,-0.04551 -0.19671,-0.06851 -0.35821,-0.06851 -0.132124,0 -0.254454,0.01321 -0.367988,0.03915 -0.112551,0.02642 -0.216786,0.06556 -0.313184,0.11744 v -0.46782 c 0.130172,-0.03132 0.261307,-0.0553 0.393433,-0.07243 0.133103,-0.01663 0.266206,-0.02544 0.399309,-0.02544 0.34547,0 0.59505,0.06851 0.74773,0.20553 0.15366,0.13603 0.23098,0.35771 0.23098,0.66551 z"
                 transform="matrix(1,0,0,1.00179,784.873,407.725)"
                 id="path71"
                 inkscape:connector-curvature="0"
                 style="fill:#ffffff" />
              <path
                 d="M 2.2236,-1.16856 V 0 H 1.60702 V -0.894526 C 1.60702,-1.05992 1.6031,-1.17444 1.59528,-1.23707 1.58744,-1.29971 1.57423,-1.34571 1.55613,-1.37606 1.53263,-1.4152 1.49985,-1.44554 1.45825,-1.46805 1.41764,-1.49007 1.37115,-1.50132 1.31928,-1.50132 c -0.12821,0 -0.22853,0.0499 -0.30144,0.14876 -0.073398,0.09787 -0.109609,0.2344 -0.109609,0.40909 V -1.25274e-5 H 0.295569 V -1.9182 h 0.612662 v 0.27991 C 1.00072,-1.74888 1.09859,-1.8311 1.20185,-1.88493 c 0.10423,-0.05333 0.21922,-0.08025 0.3445,-0.08025 0.22167,0 0.39001,0.06851 0.505,0.20553 0.1145,0.13604 0.17225,0.33275 0.17225,0.59114 z"
                 transform="matrix(1,0,0,1.00179,787.24,407.725)"
                 id="path73"
                 inkscape:connector-curvature="0"
                 style="fill:#ffffff" />
              <path
                 d="m 1.15487,-0.863207 c -0.1282,0 -0.224615,0.021531 -0.289695,0.064592 -0.064105,0.043063 -0.095912,0.107168 -0.095912,0.191819 0,0.078296 0.025935,0.139955 0.078296,0.184001 0.05187,0.043063 0.123805,0.064593 0.215321,0.064593 0.11598,0 0.21335,-0.041104 0.29165,-0.123316 C 1.4338,-0.564707 1.47392,-0.66845 1.47392,-0.792747 V -0.863213 Z M 2.09051,-1.09419 V 0 H 1.47392 v -0.283819 c -0.0822,0.116465 -0.17517,0.2011262 -0.27795,0.254455 -0.10325,0.0518706 -0.228523,0.0782957 -0.375818,0.0782957 -0.198671,0 -0.359673,-0.0572536 -0.48348,-0.1722507 -0.124295,-0.115975 -0.185956,-0.266694 -0.185956,-0.452162 0,-0.224126 0.076828,-0.388547 0.230979,-0.493269 0.155126,-0.10569 0.398331,-0.15854 0.730105,-0.15854 h 0.36211 v -0.04893 c 0,-0.09641 -0.03865,-0.16687 -0.11548,-0.2114 -0.07732,-0.04551 -0.19671,-0.06851 -0.35821,-0.06851 -0.132124,0 -0.254454,0.01321 -0.367988,0.03915 -0.112551,0.02642 -0.216786,0.06556 -0.313184,0.11744 v -0.46782 c 0.130172,-0.03132 0.261307,-0.0553 0.393433,-0.07243 0.133103,-0.01663 0.266206,-0.02544 0.399309,-0.02544 0.34547,0 0.59505,0.06851 0.74773,0.20553 0.15366,0.13603 0.23098,0.35771 0.23098,0.66551 z"
                 transform="matrix(1,0,0,1.00179,789.737,407.725)"
                 id="path75"
                 inkscape:connector-curvature="0"
                 style="fill:#ffffff" />
              <path
                 d="m 0.322967,-2.55633 h 0.657685 v 2.057241 H 2.13943 V 5.01093e-5 H 0.322967 Z"
                 transform="matrix(1,0,0,1.00179,793.325,407.725)"
                 id="path77"
                 inkscape:connector-curvature="0"
                 style="fill:#ffffff" />
              <path
                 d="m 1.15487,-0.863207 c -0.1282,0 -0.224615,0.021531 -0.289695,0.064592 -0.064105,0.043063 -0.095912,0.107168 -0.095912,0.191819 0,0.078296 0.025935,0.139955 0.078296,0.184001 0.05187,0.043063 0.123805,0.064593 0.215321,0.064593 0.11598,0 0.21335,-0.041104 0.29165,-0.123316 C 1.4338,-0.564707 1.47392,-0.66845 1.47392,-0.792747 V -0.863213 Z M 2.09051,-1.09419 V 0 H 1.47392 v -0.283819 c -0.0822,0.116465 -0.17517,0.2011262 -0.27795,0.254455 -0.10325,0.0518706 -0.228523,0.0782957 -0.375818,0.0782957 -0.198671,0 -0.359673,-0.0572536 -0.48348,-0.1722507 -0.124295,-0.115975 -0.185956,-0.266694 -0.185956,-0.452162 0,-0.224126 0.076828,-0.388547 0.230979,-0.493269 0.155126,-0.10569 0.398331,-0.15854 0.730105,-0.15854 h 0.36211 v -0.04893 c 0,-0.09641 -0.03865,-0.16687 -0.11548,-0.2114 -0.07732,-0.04551 -0.19671,-0.06851 -0.35821,-0.06851 -0.132124,0 -0.254454,0.01321 -0.367988,0.03915 -0.112551,0.02642 -0.216786,0.06556 -0.313184,0.11744 v -0.46782 c 0.130172,-0.03132 0.261307,-0.0553 0.393433,-0.07243 0.133103,-0.01663 0.266206,-0.02544 0.399309,-0.02544 0.34547,0 0.59505,0.06851 0.74773,0.20553 0.15366,0.13603 0.23098,0.35771 0.23098,0.66551 z"
                 transform="matrix(1,0,0,1.00179,795.56,407.725)"
                 id="path79"
                 inkscape:connector-curvature="0"
                 style="fill:#ffffff" />
              <path
                 d="m 0.964993,-2.46237 v 0.54416 H 1.59723 v 0.43846 H 0.964993 v 0.814273 c 0,0.089062 0.017615,0.148762 0.052847,0.180081 0.03524,0.031319 0.10473,0.046977 0.20944,0.046977 H 1.54243 V 3.7582e-5 H 1.01784 C 0.775126,3.7582e-5 0.602875,-0.0498763 0.50109,-0.150679 0.400284,-0.252463 0.350374,-0.423737 0.350374,-0.665477 V -1.47975 H 0.0469749 V -1.91821 H 0.350374 v -0.54416 z"
                 transform="matrix(1,0,0,1.00179,797.928,407.725)"
                 id="path81"
                 inkscape:connector-curvature="0"
                 style="fill:#ffffff" />
              <path
                 d="M 0.0430627,-1.91819 H 0.655724 L 1.17248,-0.61647 1.61093,-1.91819 H 2.2236 L 1.41715,0.182148 C 1.33591,0.394523 1.24148,0.543285 1.13333,0.628433 1.02469,0.714559 0.882782,0.757615 0.706622,0.757615 H 0.35037 V 0.354386 h 0.191819 c 0.104231,0 0.18008,-0.017127 0.227058,-0.050893 C 0.817202,0.270707 0.854394,0.211985 0.880818,0.127334 L 0.898434,0.0744838 Z"
                 transform="matrix(1,0,0,1.00179,799.604,407.725)"
                 id="path83"
                 inkscape:connector-curvature="0"
                 style="fill:#ffffff" />
              <path
                 d="m 1.79291,-1.85755 v 0.46586 c -0.13066,-0.0548 -0.2574,-0.09591 -0.37972,-0.12332 -0.12283,-0.0274 -0.23831,-0.0411 -0.34646,-0.0411 -0.116468,0 -0.203084,0.01468 -0.260333,0.04307 -0.056275,0.02887 -0.084169,0.07389 -0.084169,0.13506 0,0.04844 0.021532,0.08563 0.064593,0.11156 0.043063,0.02643 0.119891,0.046 0.230979,0.05873 l 0.10766,0.01565 c 0.31416,0.04062 0.52555,0.10668 0.63419,0.197699 0.10815,0.091508 0.16247,0.234398 0.16247,0.428672 0,0.205035 -0.07585,0.359184 -0.22706,0.461945 -0.15022,0.10178477 -0.37484,0.1526833 -0.67334,0.1526833 -0.128206,0 -0.259843,-0.0097869 -0.395388,-0.0293616 C 0.491762,2.38019e-5 0.353273,-0.0298263 0.211364,-0.0704424 V -0.536308 c 0.121358,0.060189 0.245648,0.105208 0.373865,0.135057 0.129181,0.028871 0.26033,0.043063 0.393433,0.043063 0.119888,0 0.209938,-0.016149 0.270108,-0.048935 0.05971,-0.033765 0.09004,-0.083189 0.09004,-0.148762 0,-0.054807 -0.02103,-0.094933 -0.06263,-0.121359 C 1.2341,-0.704647 1.1514,-0.7252 1.02758,-0.73988 L 0.91993,-0.753583 C 0.646872,-0.787348 0.456031,-0.850474 0.346417,-0.943447 0.236802,-1.03593 0.181995,-1.17638 0.181995,-1.36429 c 0,-0.20357 0.068999,-0.35429 0.207479,-0.45217 0.139466,-0.09884 0.353307,-0.14876 0.642026,-0.14876 0.11206,0 0.22999,0.00931 0.35429,0.02741 0.12526,0.01712 0.26082,0.04404 0.40713,0.08025 z"
                 transform="matrix(1,0,0,1.00179,801.89,407.725)"
                 id="path85"
                 inkscape:connector-curvature="0"
                 style="fill:#ffffff" />
              <path
                 d="M 2.2236,-1.16856 V 0 H 1.60702 V -0.890617 C 1.60702,-1.05896 1.6031,-1.17444 1.59528,-1.23707 1.58744,-1.29971 1.57423,-1.34571 1.55613,-1.37606 1.53263,-1.4152 1.49985,-1.44554 1.45825,-1.46805 1.41764,-1.49007 1.37115,-1.50132 1.31928,-1.50132 c -0.12821,0 -0.22853,0.0499 -0.30144,0.14876 -0.073398,0.09787 -0.109609,0.2344 -0.109609,0.40909 V -1.25274e-5 H 0.295569 V -2.66595 h 0.612662 v 1.02762 c 0.092489,-0.11059 0.190359,-0.1928 0.293619,-0.24663 0.10423,-0.05334 0.21922,-0.08026 0.3445,-0.08026 0.22167,0 0.39001,0.06851 0.505,0.20553 0.1145,0.13604 0.17225,0.33275 0.17225,0.59114 z"
                 transform="matrix(1,0,0,1.00179,803.978,407.725)"
                 id="path87"
                 inkscape:connector-curvature="0"
                 style="fill:#ffffff" />
              <path
                 d="m 2.20994,-0.964993 v 0.17616 H 0.775191 c 0.015659,0.143864 0.067529,0.251523 0.156591,0.322967 0.088568,0.071934 0.213358,0.107657 0.373868,0.107657 0.12918,0 0.26082,-0.018595 0.39538,-0.056764 0.13555,-0.039148 0.27452,-0.096891 0.41692,-0.174204 v 0.471729 C 1.97311,-0.0626416 1.82826,-0.021537 1.68341,0.0058678 1.53856,0.0342497 1.39371,0.0489305 1.24886,0.0489305 c -0.347431,0 -0.617558,-0.0880822 -0.810366,-0.2642515 -0.191818,-0.17616 -0.287741,-0.423286 -0.287741,-0.741856 0,-0.313183 0.094445,-0.558833 0.28382,-0.737933 0.188887,-0.18009 0.448728,-0.27012 0.779047,-0.27012 0.30144,0 0.54268,0.09152 0.72423,0.27404 0.18106,0.18155 0.27208,0.42377 0.27208,0.726196 z M 1.57967,-1.16856 c 0,-0.11598 -0.03425,-0.20944 -0.10178,-0.27991 -0.06802,-0.07145 -0.15659,-0.10766 -0.26621,-0.10766 -0.11891,0 -0.215319,0.03328 -0.289693,0.09982 -0.074376,0.06656 -0.120869,0.16247 -0.13898,0.28775 z"
                 transform="matrix(1,0,0,1.00179,806.475,407.725)"
                 id="path89"
                 inkscape:connector-curvature="0"
                 style="fill:#ffffff" />
              <path
                 d="M 0.0528503,-1.91819 H 0.665512 L 1.14507,-0.593043 1.62072,-1.91819 H 2.23533 L 1.47979,0 H 0.806444 Z"
                 transform="matrix(1,0,0,1.00179,808.855,407.725)"
                 id="path91"
                 inkscape:connector-curvature="0"
                 style="fill:#ffffff" />
              <path
                 d="m 1.15487,-0.863207 c -0.1282,0 -0.224615,0.021531 -0.289695,0.064592 -0.064105,0.043063 -0.095912,0.107168 -0.095912,0.191819 0,0.078296 0.025935,0.139955 0.078296,0.184001 0.05187,0.043063 0.123805,0.064593 0.215321,0.064593 0.11598,0 0.21335,-0.041104 0.29165,-0.123316 C 1.4338,-0.564707 1.47392,-0.66845 1.47392,-0.792747 V -0.863213 Z M 2.09051,-1.09419 V 0 H 1.47392 v -0.283819 c -0.0822,0.116465 -0.17517,0.2011262 -0.27795,0.254455 -0.10325,0.0518706 -0.228523,0.0782957 -0.375818,0.0782957 -0.198671,0 -0.359673,-0.0572536 -0.48348,-0.1722507 -0.124295,-0.115975 -0.185956,-0.266694 -0.185956,-0.452162 0,-0.224126 0.076828,-0.388547 0.230979,-0.493269 0.155126,-0.10569 0.398331,-0.15854 0.730105,-0.15854 h 0.36211 v -0.04893 c 0,-0.09641 -0.03865,-0.16687 -0.11548,-0.2114 -0.07732,-0.04551 -0.19671,-0.06851 -0.35821,-0.06851 -0.132124,0 -0.254454,0.01321 -0.367988,0.03915 -0.112551,0.02642 -0.216786,0.06556 -0.313184,0.11744 v -0.46782 c 0.130172,-0.03132 0.261307,-0.0553 0.393433,-0.07243 0.133103,-0.01663 0.266206,-0.02544 0.399309,-0.02544 0.34547,0 0.59505,0.06851 0.74773,0.20553 0.15366,0.13603 0.23098,0.35771 0.23098,0.66551 z"
                 transform="matrix(1,0,0,1.00179,811.141,407.725)"
                 id="path93"
                 inkscape:connector-curvature="0"
                 style="fill:#ffffff" />
              <path
                 d="m 1.55614,-2.66594 v 0.40323 H 1.21752 c -0.08613,0 -0.14681,0.01566 -0.18204,0.04698 -0.03425,0.03131 -0.050888,0.08612 -0.050888,0.16442 v 0.1331 H 1.50918 v 0.43846 H 0.984592 V -2.50546e-5 H 0.37193 V -1.47975 H 0.0665765 V -1.91821 H 0.37193 v -0.1331 c 0,-0.20847 0.057744,-0.36309 0.174205,-0.4639 0.115975,-0.10032 0.296547,-0.15072 0.542195,-0.15072 z"
                 transform="matrix(1,0,0,1.00179,754.614,411.238)"
                 id="path95"
                 inkscape:connector-curvature="0"
                 style="fill:#ffffff" />
              <path
                 d="M 1.7205,-1.39567 C 1.6657,-1.42013 1.61138,-1.43873 1.55804,-1.45048 1.50568,-1.4632 1.45283,-1.47005 1.39949,-1.47005 c -0.15806,0 -0.27942,0.05089 -0.36407,0.15268 -0.085146,0.10081 -0.127227,0.24468 -0.127227,0.432584 V -4.38456e-5 H 0.295532 V -1.91823 h 0.612661 v 0.31514 c 0.078296,-0.12527 0.168337,-0.2163 0.270107,-0.27403 0.10277,-0.05872 0.2256,-0.08809 0.368,-0.08809 0.02055,0 0.04306,0.00147 0.06655,0.00391 0.02447,0.00148 0.0597,0.0049 0.1057,0.0098 z"
                 transform="matrix(1,0,0,1.00179,756.14,411.238)"
                 id="path97"
                 inkscape:connector-curvature="0"
                 style="fill:#ffffff" />
              <path
                 d="m 1.20771,-1.52683 c -0.13604,0 -0.239787,0.04893 -0.31123,0.14681 -0.071934,0.09787 -0.107657,0.2388 -0.107657,0.422794 0,0.184002 0.035723,0.324935 0.107657,0.422798 0.071445,0.096891 0.17518,0.14484 0.31123,0.14484 0.1331,0 0.23488,-0.047955 0.30535,-0.14484 0.07145,-0.09787 0.10766,-0.238796 0.10766,-0.422798 0,-0.183994 -0.03621,-0.324934 -0.10766,-0.422794 C 1.44259,-1.4779 1.34081,-1.52683 1.20771,-1.52683 Z m 0,-0.43846 c 0.32981,0 0.58771,0.08955 0.77317,0.26816 0.18498,0.17764 0.27796,0.42427 0.27796,0.739892 0,0.314649 -0.09298,0.561287 -0.27796,0.739889 -0.18546,0.1776373 -0.44336,0.2662056 -0.77317,0.2662056 -0.331774,0 -0.590639,-0.088572 -0.777083,-0.2662056 -0.186933,-0.178615 -0.279911,-0.42524 -0.279911,-0.739889 0,-0.315622 0.092977,-0.562262 0.279911,-0.739892 0.186444,-0.17861 0.445309,-0.26816 0.777083,-0.26816 z"
                 transform="matrix(1,0,0,1.00179,757.87,411.238)"
                 id="path99"
                 inkscape:connector-curvature="0"
                 style="fill:#ffffff" />
              <path
                 d="m 2.0729,-1.59924 c 0.07682,-0.11842 0.16883,-0.20944 0.27598,-0.27208 0.10668,-0.06264 0.22414,-0.09396 0.35234,-0.09396 0.22021,0 0.38806,0.06851 0.50305,0.20553 0.11597,0.13604 0.17419,0.33275 0.17419,0.59114 V -5.01093e-5 H 2.76188 V -1.00028 -1.0453 c 9.8e-4,-0.01664 0.00196,-0.04013 0.00196,-0.07047 0,-0.13554 -0.02055,-0.23342 -0.06068,-0.29361 -0.03914,-0.06118 -0.10325,-0.092 -0.19181,-0.092 -0.11647,0 -0.2065,0.04844 -0.27012,0.14484 -0.0641,0.09542 -0.09689,0.23391 -0.09786,0.414966 V -7.01531e-5 H 1.52678 V -1.0003 c 0,-0.21238 -0.0186,-0.34891 -0.0548,-0.40909 -0.03671,-0.06118 -0.10179,-0.092 -0.19575,-0.092 -0.11744,0 -0.20846,0.04844 -0.27208,0.14484 -0.064103,0.09542 -0.095909,0.23293 -0.095909,0.413011 V -8.01749e-5 H 0.291658 V -1.91827 h 0.616583 v 0.27991 C 0.9836,-1.7465 1.06973,-1.82821 1.16662,-1.88302 c 0.09786,-0.05481 0.20552,-0.08222 0.32296,-0.08222 0.13311,0 0.25055,0.0323 0.35234,0.09591 0.10178,0.06411 0.17861,0.15415 0.23098,0.27012 z"
                 transform="matrix(1,0,0,1.00179,760.28,411.238)"
                 id="path101"
                 inkscape:connector-curvature="0"
                 style="fill:#ffffff" />
              <path
                 d="m 0.964993,-2.46237 v 0.54416 H 1.59723 v 0.43846 H 0.964993 v 0.814273 c 0,0.089062 0.017615,0.148762 0.052847,0.180081 0.03524,0.031319 0.10473,0.046977 0.20944,0.046977 H 1.54243 V 3.7582e-5 H 1.01784 C 0.775126,3.7582e-5 0.602875,-0.0498763 0.50109,-0.150679 0.400284,-0.252463 0.350374,-0.423737 0.350374,-0.665477 V -1.47975 H 0.0469749 V -1.91821 H 0.350374 v -0.54416 z"
                 transform="matrix(1,0,0,1.00179,765.156,411.238)"
                 id="path103"
                 inkscape:connector-curvature="0"
                 style="fill:#ffffff" />
              <path
                 d="M 2.2236,-1.16856 V 0 H 1.60702 V -0.890617 C 1.60702,-1.05896 1.6031,-1.17444 1.59528,-1.23707 1.58744,-1.29971 1.57423,-1.34571 1.55613,-1.37606 1.53263,-1.4152 1.49985,-1.44554 1.45825,-1.46805 1.41764,-1.49007 1.37115,-1.50132 1.31928,-1.50132 c -0.12821,0 -0.22853,0.0499 -0.30144,0.14876 -0.073398,0.09787 -0.109609,0.2344 -0.109609,0.40909 V -1.25274e-5 H 0.295569 V -2.66595 h 0.612662 v 1.02762 c 0.092489,-0.11059 0.190359,-0.1928 0.293619,-0.24663 0.10423,-0.05334 0.21922,-0.08026 0.3445,-0.08026 0.22167,0 0.39001,0.06851 0.505,0.20553 0.1145,0.13604 0.17225,0.33275 0.17225,0.59114 z"
                 transform="matrix(1,0,0,1.00179,766.833,411.238)"
                 id="path105"
                 inkscape:connector-curvature="0"
                 style="fill:#ffffff" />
              <path
                 d="m 2.20994,-0.964993 v 0.17616 H 0.775191 c 0.015659,0.143864 0.067529,0.251523 0.156591,0.322967 0.088568,0.071934 0.213358,0.107657 0.373868,0.107657 0.12918,0 0.26082,-0.018595 0.39538,-0.056764 0.13555,-0.039148 0.27452,-0.096891 0.41692,-0.174204 v 0.471729 C 1.97311,-0.0626416 1.82826,-0.021537 1.68341,0.0058678 1.53856,0.0342497 1.39371,0.0489305 1.24886,0.0489305 c -0.347431,0 -0.617558,-0.0880822 -0.810366,-0.2642515 -0.191818,-0.17616 -0.287741,-0.423286 -0.287741,-0.741856 0,-0.313183 0.094445,-0.558833 0.28382,-0.737933 0.188887,-0.18009 0.448728,-0.27012 0.779047,-0.27012 0.30144,0 0.54268,0.09152 0.72423,0.27404 0.18106,0.18155 0.27208,0.42377 0.27208,0.726196 z M 1.57967,-1.16856 c 0,-0.11598 -0.03425,-0.20944 -0.10178,-0.27991 -0.06802,-0.07145 -0.15659,-0.10766 -0.26621,-0.10766 -0.11891,0 -0.215319,0.03328 -0.289693,0.09982 -0.074376,0.06656 -0.120869,0.16247 -0.13898,0.28775 z"
                 transform="matrix(1,0,0,1.00179,769.33,411.238)"
                 id="path107"
                 inkscape:connector-curvature="0"
                 style="fill:#ffffff" />
              <path
                 d="M 0.322967,-2.55633 H 1.05895 L 1.98871,-0.8025 V -2.55633 H 2.61312 V 0 H 1.87714 L 0.947379,-1.75382 V 0 H 0.322967 Z"
                 transform="matrix(1,0,0,1.00179,772.93,411.238)"
                 id="path109"
                 inkscape:connector-curvature="0"
                 style="fill:#ffffff" />
              <path
                 d="m 1.20771,-1.52683 c -0.13604,0 -0.239787,0.04893 -0.31123,0.14681 -0.071934,0.09787 -0.107657,0.2388 -0.107657,0.422794 0,0.184002 0.035723,0.324935 0.107657,0.422798 0.071445,0.096891 0.17518,0.14484 0.31123,0.14484 0.1331,0 0.23488,-0.047955 0.30535,-0.14484 0.07145,-0.09787 0.10766,-0.238796 0.10766,-0.422798 0,-0.183994 -0.03621,-0.324934 -0.10766,-0.422794 C 1.44259,-1.4779 1.34081,-1.52683 1.20771,-1.52683 Z m 0,-0.43846 c 0.32981,0 0.58771,0.08955 0.77317,0.26816 0.18498,0.17764 0.27796,0.42427 0.27796,0.739892 0,0.314649 -0.09298,0.561287 -0.27796,0.739889 -0.18546,0.1776373 -0.44336,0.2662056 -0.77317,0.2662056 -0.331774,0 -0.590639,-0.088572 -0.777083,-0.2662056 -0.186933,-0.178615 -0.279911,-0.42524 -0.279911,-0.739889 0,-0.315622 0.092977,-0.562262 0.279911,-0.739892 0.186444,-0.17861 0.445309,-0.26816 0.777083,-0.26816 z"
                 transform="matrix(1,0,0,1.00179,775.866,411.238)"
                 id="path111"
                 inkscape:connector-curvature="0"
                 style="fill:#ffffff" />
              <path
                 d="M 0.274035,-0.747731 V -1.91826 h 0.616582 v 0.19182 c 0,0.10472 -9.78e-4,0.23489 -0.001957,0.39148 -0.001468,0.15659 -0.001957,0.26131 -0.001957,0.31318 0,0.155616 0.003914,0.267184 0.011744,0.334719 0.008808,0.068019 0.022511,0.116954 0.041105,0.146808 0.025935,0.040616 0.059212,0.071934 0.099828,0.093955 0.04013,0.021041 0.08662,0.031318 0.13897,0.031318 0.12772,0 0.22804,-0.048935 0.30144,-0.146808 0.07291,-0.09787 0.10962,-0.23391 0.10962,-0.409092 V -1.91826 H 2.20207 V -7.51639e-5 H 1.58941 V -0.278032 C 1.49643,-0.16548 1.39856,-0.0827806 1.29579,-0.0294392 1.19253,0.0224314 1.07851,0.0488566 0.953242,0.0488566 0.732548,0.0488566 0.564206,-0.0186732 0.44824,-0.154713 0.331775,-0.290258 0.274035,-0.487965 0.274035,-0.747806 Z"
                 transform="matrix(1,0,0,1.00179,778.276,411.238)"
                 id="path113"
                 inkscape:connector-curvature="0"
                 style="fill:#ffffff" />
              <path
                 d="M 2.2236,-1.16856 V 0 H 1.60702 V -0.894526 C 1.60702,-1.05992 1.6031,-1.17444 1.59528,-1.23707 1.58744,-1.29971 1.57423,-1.34571 1.55613,-1.37606 1.53263,-1.4152 1.49985,-1.44554 1.45825,-1.46805 1.41764,-1.49007 1.37115,-1.50132 1.31928,-1.50132 c -0.12821,0 -0.22853,0.0499 -0.30144,0.14876 -0.073398,0.09787 -0.109609,0.2344 -0.109609,0.40909 V -1.25274e-5 H 0.295569 V -1.9182 h 0.612662 v 0.27991 C 1.00072,-1.74888 1.09859,-1.8311 1.20185,-1.88493 c 0.10423,-0.05333 0.21922,-0.08025 0.3445,-0.08025 0.22167,0 0.39001,0.06851 0.505,0.20553 0.1145,0.13604 0.17225,0.33275 0.17225,0.59114 z"
                 transform="matrix(1,0,0,1.00179,780.773,411.238)"
                 id="path115"
                 inkscape:connector-curvature="0"
                 style="fill:#ffffff" />
              <path
                 d="M 0.322967,-2.55633 H 1.41715 c 0.32493,0 0.574,0.07243 0.74774,0.21728 0.17469,0.14386 0.26229,0.3494 0.26229,0.61658 0,0.26768 -0.08759,0.47369 -0.26229,0.61854 -0.17373,0.144837 -0.42281,0.217271 -0.74774,0.217271 H 0.980652 V 3.7582e-5 H 0.322967 Z m 0.657685,0.4776 v 0.71445 H 1.34669 c 0.12772,0 0.22608,-0.03131 0.29557,-0.09395 0.07046,-0.06264 0.10569,-0.15072 0.10569,-0.26425 0,-0.11451 -0.03523,-0.20259 -0.10569,-0.26426 -0.06949,-0.06116 -0.16784,-0.092 -0.29557,-0.092 z"
                 transform="matrix(1,0,0,1.00179,784.491,411.238)"
                 id="path117"
                 inkscape:connector-curvature="0"
                 style="fill:#ffffff" />
              <path
                 d="M 1.7205,-1.39567 C 1.6657,-1.42013 1.61138,-1.43873 1.55804,-1.45048 1.50568,-1.4632 1.45283,-1.47005 1.39949,-1.47005 c -0.15806,0 -0.27942,0.05089 -0.36407,0.15268 -0.085146,0.10081 -0.127227,0.24468 -0.127227,0.432584 V -4.38456e-5 H 0.295532 V -1.91823 h 0.612661 v 0.31514 c 0.078296,-0.12527 0.168337,-0.2163 0.270107,-0.27403 0.10277,-0.05872 0.2256,-0.08809 0.368,-0.08809 0.02055,0 0.04306,0.00147 0.06655,0.00391 0.02447,0.00148 0.0597,0.0049 0.1057,0.0098 z"
                 transform="matrix(1,0,0,1.00179,787.062,411.238)"
                 id="path119"
                 inkscape:connector-curvature="0"
                 style="fill:#ffffff" />
              <path
                 d="m 1.20771,-1.52683 c -0.13604,0 -0.239787,0.04893 -0.31123,0.14681 -0.071934,0.09787 -0.107657,0.2388 -0.107657,0.422794 0,0.184002 0.035723,0.324935 0.107657,0.422798 0.071445,0.096891 0.17518,0.14484 0.31123,0.14484 0.1331,0 0.23488,-0.047955 0.30535,-0.14484 0.07145,-0.09787 0.10766,-0.238796 0.10766,-0.422798 0,-0.183994 -0.03621,-0.324934 -0.10766,-0.422794 C 1.44259,-1.4779 1.34081,-1.52683 1.20771,-1.52683 Z m 0,-0.43846 c 0.32981,0 0.58771,0.08955 0.77317,0.26816 0.18498,0.17764 0.27796,0.42427 0.27796,0.739892 0,0.314649 -0.09298,0.561287 -0.27796,0.739889 -0.18546,0.1776373 -0.44336,0.2662056 -0.77317,0.2662056 -0.331774,0 -0.590639,-0.088572 -0.777083,-0.2662056 -0.186933,-0.178615 -0.279911,-0.42524 -0.279911,-0.739889 0,-0.315622 0.092977,-0.562262 0.279911,-0.739892 0.186444,-0.17861 0.445309,-0.26816 0.777083,-0.26816 z"
                 transform="matrix(1,0,0,1.00179,788.792,411.238)"
                 id="path121"
                 inkscape:connector-curvature="0"
                 style="fill:#ffffff" />
              <path
                 d="m 0.295569,-1.91819 h 0.612662 v 1.8829882 C 0.908231,0.221708 0.846084,0.417937 0.722275,0.553971 0.599449,0.689516 0.420843,0.75754 0.185956,0.75754 h -0.3034 V 0.35431 h 0.10765765 C 0.106189,0.35431 0.185954,0.327885 0.229009,0.276015 0.27305,0.223654 0.295561,0.119912 0.295561,-0.0352143 Z m 0,-0.74772 h 0.612662 v 0.50108 H 0.295569 Z"
                 transform="matrix(1,0,0,1.00179,791.202,411.238)"
                 id="path123"
                 inkscape:connector-curvature="0"
                 style="fill:#ffffff" />
              <path
                 d="m 2.20994,-0.964993 v 0.17616 H 0.775191 c 0.015659,0.143864 0.067529,0.251523 0.156591,0.322967 0.088568,0.071934 0.213358,0.107657 0.373868,0.107657 0.12918,0 0.26082,-0.018595 0.39538,-0.056764 0.13555,-0.039148 0.27452,-0.096891 0.41692,-0.174204 v 0.471729 C 1.97311,-0.0626416 1.82826,-0.021537 1.68341,0.0058678 1.53856,0.0342497 1.39371,0.0489305 1.24886,0.0489305 c -0.347431,0 -0.617558,-0.0880822 -0.810366,-0.2642515 -0.191818,-0.17616 -0.287741,-0.423286 -0.287741,-0.741856 0,-0.313183 0.094445,-0.558833 0.28382,-0.737933 0.188887,-0.18009 0.448728,-0.27012 0.779047,-0.27012 0.30144,0 0.54268,0.09152 0.72423,0.27404 0.18106,0.18155 0.27208,0.42377 0.27208,0.726196 z M 1.57967,-1.16856 c 0,-0.11598 -0.03425,-0.20944 -0.10178,-0.27991 -0.06802,-0.07145 -0.15659,-0.10766 -0.26621,-0.10766 -0.11891,0 -0.215319,0.03328 -0.289693,0.09982 -0.074376,0.06656 -0.120869,0.16247 -0.13898,0.28775 z"
                 transform="matrix(1,0,0,1.00179,792.404,411.238)"
                 id="path125"
                 inkscape:connector-curvature="0"
                 style="fill:#ffffff" />
              <path
                 d="m 1.84389,-1.85755 v 0.49914 c -0.0822,-0.05726 -0.16588,-0.09983 -0.25054,-0.12723 -0.08368,-0.0274 -0.17029,-0.0411 -0.26033,-0.0411 -0.17127,0 -0.30486,0.0504 -0.401263,0.15071 -0.095423,0.09933 -0.142887,0.2388 -0.142887,0.41889 0,0.179103 0.047468,0.318569 0.142887,0.418888 0.096403,0.099338 0.229993,0.148762 0.401263,0.148762 0.09493,0 0.18596,-0.013702 0.27208,-0.041104 0.08613,-0.028382 0.1654,-0.070956 0.23879,-0.127228 v 0.5010933 C 1.74848,-0.0214957 1.65109,0.00443968 1.55225,0.0215671 1.45438,0.0396727 1.35504,0.0489706 1.25472,0.0489706 c -0.345963,0 -0.616578,-0.0885719 -0.812317,-0.2662056 -0.194763,-0.177149 -0.29165,-0.423774 -0.29165,-0.739889 0,-0.317096 0.096892,-0.564216 0.29165,-0.741856 0.195739,-0.17714 0.466354,-0.26621 0.812317,-0.26621 0.10032,0 0.19966,0.0093 0.29753,0.02741 0.09787,0.01712 0.19476,0.04404 0.29164,0.08025 z"
                 transform="matrix(1,0,0,1.00179,794.783,411.238)"
                 id="path127"
                 inkscape:connector-curvature="0"
                 style="fill:#ffffff" />
              <path
                 d="m 0.964993,-2.46237 v 0.54416 H 1.59723 v 0.43846 H 0.964993 v 0.814273 c 0,0.089062 0.017615,0.148762 0.052847,0.180081 0.03524,0.031319 0.10473,0.046977 0.20944,0.046977 H 1.54243 V 3.7582e-5 H 1.01784 C 0.775126,3.7582e-5 0.602875,-0.0498763 0.50109,-0.150679 0.400284,-0.252463 0.350374,-0.423737 0.350374,-0.665477 V -1.47975 H 0.0469749 V -1.91821 H 0.350374 v -0.54416 z"
                 transform="matrix(1,0,0,1.00179,796.861,411.238)"
                 id="path129"
                 inkscape:connector-curvature="0"
                 style="fill:#ffffff" />
            </g>
          </g>
        </g>
        <path
           d="m 33.4152,89.8023 h 58.4743 c 2.7698,0 5.4256,-1.1006 7.3841,-3.0585 1.9574,-1.9585 3.0584,-4.6142 3.0584,-7.3841 V 20.8854 c 0,-2.7698 -1.101,-5.4254 -3.0584,-7.384 -1.9585,-1.958 -4.6143,-3.0585 -7.3841,-3.0585 H 33.4152 c -2.7698,0 -5.4256,1.1006 -7.384,3.0585 -1.958,1.9586 -3.0586,4.6142 -3.0586,7.384 v 58.4743 c 0,2.7699 1.1007,5.4256 3.0586,7.3841 1.9584,1.9579 4.6142,3.0585 7.384,3.0585 z M 27.1499,20.8847 c 0,-1.6621 0.6601,-3.2558 1.8349,-4.4304 1.1747,-1.1747 2.7684,-1.8349 4.4304,-1.8349 h 58.4743 c 1.6622,0 3.2558,0.6601 4.4305,1.8349 1.1746,1.1747 1.8348,2.7684 1.8348,4.4304 V 79.359 c 0,1.6622 -0.6601,3.2558 -1.8348,4.4305 -1.1748,1.1746 -2.7683,1.8348 -4.4305,1.8348 H 33.4152 c -1.6622,0 -3.2558,-0.6601 -4.4304,-1.8348 -1.1747,-1.1748 -1.8349,-2.7683 -1.8349,-4.4305 z"
           transform="matrix(1.00293,0,0,1,727.546,310.741)"
           id="path137"
           inkscape:connector-curvature="0"
           style="fill:#ffffff" />
      </g>
    </g>
  </g>
</svg>
