<?xml version="1.0" encoding="UTF-8" standalone="no"?>
<svg
   xmlns:dc="http://purl.org/dc/elements/1.1/"
   xmlns:cc="http://creativecommons.org/ns#"
   xmlns:rdf="http://www.w3.org/1999/02/22-rdf-syntax-ns#"
   xmlns:svg="http://www.w3.org/2000/svg"
   xmlns="http://www.w3.org/2000/svg"
   xmlns:sodipodi="http://sodipodi.sourceforge.net/DTD/sodipodi-0.dtd"
   xmlns:inkscape="http://www.inkscape.org/namespaces/inkscape"
   width="78.816498"
   height="79.359543"
   overflow="hidden"
   version="1.1"
   id="svg96"
   sodipodi:docname="gdacs_all_events.svg"
   style="overflow:hidden"
   inkscape:version="0.92.5 (2060ec1f9f, 2020-04-08)">
  <metadata
     id="metadata100">
    <rdf:RDF>
      <cc:Work
         rdf:about="">
        <dc:format>image/svg+xml</dc:format>
        <dc:type
           rdf:resource="http://purl.org/dc/dcmitype/StillImage" />
      </cc:Work>
    </rdf:RDF>
  </metadata>
  <sodipodi:namedview
     pagecolor="#ffffff"
     bordercolor="#666666"
     borderopacity="1"
     objecttolerance="10"
     gridtolerance="10"
     guidetolerance="10"
     inkscape:pageopacity="0"
     inkscape:pageshadow="2"
     inkscape:window-width="883"
     inkscape:window-height="480"
     id="namedview98"
     showgrid="false"
     inkscape:zoom="2.8095238"
     inkscape:cx="39.0185"
     inkscape:cy="39.428405"
     inkscape:window-x="72"
     inkscape:window-y="27"
     inkscape:window-maximized="0"
     inkscape:current-layer="svg96" />
  <defs
     id="defs8">
    <clipPath
       id="clip0">
      <rect
         x="757"
         y="416"
         width="61"
         height="62"
         id="rect2" />
    </clipPath>
    <clipPath
       id="clip1">
      <rect
         x="757"
         y="416"
         width="61"
         height="62"
         id="rect5" />
    </clipPath>
  </defs>
  <g
     transform="translate(-747.9815,-406.06886)"
     id="g94">
    <g
       clip-path="url(#clip0)"
       id="g90">
      <g
         clip-path="url(#clip1)"
         id="g88">
        <g
           id="g86">
          <path
             d="M 62.5886,46.2147 55.6973,34.2788 c 0.6005,-2.1204 0.905,-4.3174 0.905,-6.5351 0,-6.3968 -2.4912,-12.4109 -7.0151,-16.9343 C 45.0645,6.2856 39.0496,3.79405 32.6529,3.79405 c -6.3968,0 -12.411,2.49114 -16.9343,7.01495 -4.5234,4.5231 -7.01499,10.5376 -7.01499,16.9343 0,6.3969 2.49119,12.411 7.01499,16.9343 4.5231,4.523 10.5375,7.0151 16.9343,7.0151 0.9861,0 1.979,-0.0622 2.9594,-0.1828 0.9358,1.4324 2.4923,2.2799 4.2211,2.2799 h 18.382 c 1.826,0 3.4603,-0.9444 4.3733,-2.5245 0.9125,-1.5818 0.9125,-3.4699 -4e-4,-5.0505 z M 54.8972,27.7432 c 0,1.4817 -0.1463,2.9531 -0.4353,4.395 l -1.0637,-1.842 c -0.913,-1.581 -2.5473,-2.5245 -4.3732,-2.5245 -1.3983,0 -2.6836,0.5555 -3.6194,1.5247 -0.4656,-0.0755 -0.9524,-0.0851 -1.4592,-0.094 -0.8074,-0.0137 -1.6416,-0.0281 -2.4802,-0.316 -2.4914,-1.6657 -1.8283,-2.71 -0.8303,-4.2822 0.5764,-0.9073 1.2234,-1.9271 0.8824,-3.0201 0.1434,-0.2543 0.4925,-0.6338 0.6978,-0.721 1.8858,0.5724 6.3574,0.6785 7.2174,0.4426 0.9507,-0.261 1.7713,-1.815 1.6267,-3.0798 -0.1391,-1.2122 -1.0773,-1.9698 -2.5104,-2.0256 -0.2113,-0.0077 -0.5945,0.0268 -1.3736,0.102 -0.8352,0.0799 -2.8985,0.2775 -3.6989,0.2088 -0.2263,-0.8535 -0.3857,-2.4818 0.3064,-3.1153 0.7648,-0.6993 2.1485,-1.162 3.159,-1.4989 0.3749,-0.1254 0.6905,-0.2309 0.9535,-0.337 4.3079,4.058 7.0011,9.8118 7.0011,16.1836 z M 19.9326,9.50618 c 0.7816,0.24462 1.3508,0.44866 1.821,0.61662 1.9381,0.6932 2.1948,0.6928 5.5004,-0.0029 2.1208,-0.44622 2.5678,-0.0803 3.2438,0.474 0.5852,0.4799 1.3134,1.0773 2.8595,1.2973 0.3177,0.0451 1.162,0.1655 1.3291,0.3695 0.0707,0.0873 0.1676,0.3893 0.0169,1.4412 -0.0666,0.4668 -0.0016,1.6854 -0.6058,1.8481 -0.3948,0.106 -0.8342,0.1973 -1.2994,0.294 -1.3765,0.2857 -2.5517,0.7383 -3.7973,1.3761 -1.1089,0.5677 -2.6277,1.3443 -3.0594,3.5551 -0.1081,0.552 -0.9813,0.721 -2.204,0.8993 -1.1998,0.1752 -2.4404,0.3563 -2.9169,1.3846 -0.5152,1.1121 0.2567,2.2857 0.8283,3.206 0.8318,1.3388 1.2499,2.0108 1.8637,2.3931 0.6981,0.435 1.3845,0.3552 2.5216,0.2226 0.4033,-0.0466 0.9045,-0.1057 1.5086,-0.1543 0.7415,0.0132 5.9542,1.4942 7.6742,3.3579 0.3201,0.3474 0.4719,0.6575 0.4523,0.923 -0.1763,2.3268 -1.2668,3.6125 -2.4216,4.975 -1.105,1.3034 -2.2477,2.6517 -2.5193,4.846 -0.3137,2.5365 -1.2231,3.6837 -1.515,3.6912 -0.0109,0 -1.031,-0.2494 -1.8107,-4.6223 -0.8342,-4.6789 -2.2797,-5.6598 -3.4409,-6.4474 -0.9058,-0.6142 -1.5597,-1.058 -1.5967,-4.3733 -0.0265,-2.3706 -1.0021,-3.2863 -1.7146,-3.9548 -0.4564,-0.4281 -0.9039,-0.7539 -1.4456,-1.0675 -1.6974,-0.9817 -4.8212,-2.7944 -6.6279,-7.8834 1.6682,-3.4841 4.2167,-6.4688 7.3557,-8.6647 z M 35.4612,46.2147 c -0.6563,1.1367 -0.8379,2.4317 -0.5507,3.6575 -0.7503,0.0755 -1.5061,0.1153 -2.2569,0.1153 -12.266,0 -22.2442,-9.9784 -22.2442,-22.2442 0,-2.567 0.4386,-5.0344 1.2429,-7.3303 2.071,4.4375 5.1271,6.2085 6.6964,7.1175 0.4282,0.2482 0.7723,0.4972 1.133,0.8355 0.6214,0.5832 1.1586,1.086 1.1763,2.7297 0.0437,3.9137 0.9567,4.8235 2.3443,5.7654 0.9432,0.6394 2.012,1.3644 2.7199,5.336 0.7137,4.001 1.8856,6.0282 3.4843,6.0282 0.0169,0 0.0341,0 0.0511,-4e-4 1.5359,-0.0409 2.7779,-2.077 3.1623,-5.1866 0.2088,-1.689 1.0981,-2.7381 2.1275,-3.9528 1.2198,-1.4391 2.6027,-3.0697 2.8209,-5.9482 0.0617,-0.8137 -0.292,-1.6106 -1.0519,-2.3673 -1.2363,-1.2318 -3.3607,-2.1718 -4.9251,-2.7438 -1.4335,-0.5238 -3.313,-1.0539 -3.9708,-0.9996 -0.6411,0.051 -1.1645,0.112 -1.5841,0.1614 -0.8308,0.0971 -1.2388,0.1386 -1.4223,0.024 -0.2765,-0.1723 -0.6905,-0.8377 -1.3171,-1.8455 -0.1531,-0.2459 -0.9435,-1.2524 -0.7311,-1.5867 0.1361,-0.2003 1.1002,-0.3413 1.6178,-0.4169 1.3858,-0.2019 3.2829,-0.4792 3.6307,-2.2602 0.3134,-1.6033 1.8119,-2.0776 3.0373,-2.8428 1.1368,-0.7097 2.6213,-0.7201 3.8885,-1.0616 1.5127,-0.4072 1.6865,-1.8858 1.8018,-2.8646 0.1218,-1.0318 0.3855,-2.2685 -0.3365,-3.1506 C 35.462,10.5191 34.5562,10.3417 33.5971,10.2047 32.5235,10.0516 32.0857,9.69254 31.5779,9.27683 30.5505,8.43414 29.6135,7.88232 26.9017,8.45263 23.9061,9.08283 23.9061,9.08283 22.3276,8.51849 22.1709,8.46226 21.9967,8.40041 21.8034,8.33253 25.0155,6.53031 28.7163,5.5 32.6535,5.5 c 5.1895,0 9.9697,1.787 13.7581,4.777 -0.0025,4e-4 -0.0053,0.0016 -0.0085,0.0028 -1.1552,0.3855 -2.7377,0.9142 -3.77,1.8576 -1.6813,1.5371 -0.9266,4.6034 -0.6321,5.3408 0.0096,0.0246 0.0204,0.0486 0.0324,0.0719 0.388,0.7595 1.2806,0.8354 5.3056,0.4498 0.478,-0.0453 1.0175,-0.0987 1.144,-0.095 0.7515,0.0292 0.833,0.3072 0.8594,0.3988 0.1367,0.4646 -0.2115,1.1797 -0.4136,1.3681 -0.7676,0.1167 -4.7283,0.0449 -6.2703,-0.4559 -0.676,-0.2198 -1.4612,0.1024 -2.1532,0.8841 -0.376,0.4245 -0.9596,1.2399 -0.6395,1.9291 0.1631,0.3515 -0.241,0.9885 -0.6688,1.6621 -0.964,1.5175 -2.5767,4.0575 1.4187,6.6773 0.0548,0.0361 0.1129,0.0646 0.174,0.0875 1.1391,0.4182 2.2421,0.4366 3.1281,0.4515 0.1301,0.0023 0.2554,0.0049 0.3772,0.0076 z m 25.6507,4.1969 c -0.6044,1.0472 -1.6873,1.6722 -2.8963,1.6722 l -18.3811,4e-4 c -1.2094,0 -2.2919,-0.625 -2.8963,-1.6722 -0.6045,-1.0471 -0.6045,-2.2971 0,-3.3445 l 9.1907,-15.9194 c 0.6046,-1.0472 1.6875,-1.6721 2.8965,-1.6721 1.2094,0 2.2918,0.6249 2.8964,1.6721 l 9.1907,15.9194 c 0.6046,1.0471 0.6046,2.2971 -4e-4,3.3441 z m -12.087,-4.9937 c 1.0555,0 1.9122,-0.8258 1.95,-1.8811 l 0.2775,-7.6914 c 0.0198,-0.5421 -0.169,-1.0346 -0.5451,-1.425 -0.3759,-0.3904 -0.8618,-0.5969 -1.4045,-0.5969 h -0.5555 c -0.5422,0 -1.0282,0.2065 -1.4045,0.5969 -0.3768,0.3904 -0.5652,0.8829 -0.5451,1.425 l 0.2776,7.6914 c 0.0373,1.0544 0.8941,1.8811 1.9497,1.8811 z m -0.4551,-9.8138 c 0.0538,-0.0562 0.0988,-0.0751 0.1771,-0.0751 h 0.5554 c 0.078,0 0.123,0.0193 0.1772,0.0751 0.0538,0.0563 0.0715,0.1012 0.0692,0.1799 l -0.278,7.691 c -0.0049,0.1334 -0.1129,0.2375 -0.2458,0.2375 -0.1334,0 -0.241,-0.1045 -0.2459,-0.2375 l -0.2784,-7.6914 c -0.0023,-0.0779 0.015,-0.1236 0.0692,-0.1795 z m 0.4551,10.6208 c -1.2464,0 -2.2602,1.0138 -2.2602,2.2601 0,1.2464 1.0138,2.2601 2.2602,2.2601 1.2463,0 2.2601,-1.0137 2.2601,-2.2601 0,-1.2468 -1.0138,-2.2601 -2.2601,-2.2601 z m 0,2.8149 c -0.3061,0 -0.5548,-0.2491 -0.5548,-0.5547 0,-0.3061 0.2491,-0.5547 0.5548,-0.5547 0.3061,0 0.5546,0.249 0.5546,0.5547 0,0.3056 -0.2486,0.5547 -0.5546,0.5547 z"
             transform="matrix(1,0,0,1.00248,750.756,416.84)"
             id="path10"
             inkscape:connector-curvature="0"
             style="fill:#ffffff" />
          <path
             d="M 2.00992,-0.120501 C 1.90589,-0.066678 1.79785,-0.0265125 1.68538,0 1.57291,0.0277145 1.45563,0.0417727 1.33352,0.0417727 c -0.3643,0 -0.653095,-0.10162 -0.865974,-0.3052677 C 0.255469,-0.466738 0.149425,-0.74268 0.149425,-1.09092 c 0,-0.35024 0.106034,-0.62699 0.318121,-0.83062 0.212879,-0.20326 0.501674,-0.30527 0.865974,-0.30527 0.12211,0 0.23939,0.01405 0.35186,0.04177 0.11248,0.02691 0.22051,0.06748 0.32454,0.1221 v 0.45147 C 1.90469,-1.68217 1.80146,-1.73398 1.69985,-1.76732 1.59903,-1.80025 1.49259,-1.81713 1.38012,-1.81713 c -0.20163,0 -0.35989,0.06427 -0.475567,0.19281 -0.114877,0.12852 -0.171914,0.30646 -0.171914,0.5334 0,0.224929 0.057036,0.402467 0.171914,0.531801 0.115677,0.12853 0.273937,0.192796 0.475567,0.192796 0.11247,0 0.21891,-0.016468 0.31973,-0.049806 0.10161,-0.032936 0.20484,-0.085152 0.31007,-0.155842 z"
             transform="matrix(1,0,0,1.00248,757.954,483.584)"
             id="path12"
             inkscape:connector-curvature="0"
             style="fill:#ffffff" />
          <path
             d="M 1.47009,-1.1937 C 1.4239,-1.21499 1.37852,-1.23065 1.33352,-1.24028 1.28854,-1.25074 1.24275,-1.25636 1.19696,-1.25636 c -0.13495,0 -0.238979,0.04338 -0.311677,0.13014 -0.073103,0.08595 -0.109252,0.209671 -0.109252,0.371137 V 4.42147e-5 H 0.252261 V -1.64033 h 0.52377 v 0.26992 C 0.84351,-1.47846 0.920624,-1.55719 1.00739,-1.6066 c 0.08756,-0.04899 0.1928,-0.0739 0.3149,-0.0739 0.01808,0 0.03736,0.00121 0.05784,0.00322 0.02008,0.0012 0.04981,0.00441 0.08836,0.00965 z"
             transform="matrix(1,0,0,1.00248,760.155,483.584)"
             id="path14"
             inkscape:connector-curvature="0"
             style="fill:#ffffff" />
          <path
             d="m 1.88941,-0.824205 v 0.149416 H 0.66353 c 0.012854,0.123307 0.057036,0.215295 0.133355,0.276342 0.075913,0.061052 0.182349,0.091578 0.319715,0.091578 0.11007,0 0.22334,-0.016067 0.33901,-0.0482 0.11568,-0.032935 0.23457,-0.082741 0.35668,-0.149414 v 0.4048733 C 1.68778,-0.0522136 1.56366,-0.0168674 1.43956,0.00642348 1.31504,0.0297195 1.19132,0.0417696 1.06842,0.0417696 0.770386,0.0417696 0.53903,-0.032939 0.374345,-0.18316 0.210462,-0.33419 0.128532,-0.546257 0.128532,-0.819391 c 0,-0.266709 0.080734,-0.476369 0.242605,-0.629799 0.161467,-0.15424 0.38399,-0.23137 0.666763,-0.23137 0.25786,0 0.46432,0.07793 0.61855,0.23297 0.15504,0.15544 0.23296,0.3631 0.23296,0.623377 z M 1.35118,-0.999327 C 1.35118,-1.09895 1.32146,-1.17927 1.26282,-1.24032 1.20498,-1.30137 1.12946,-1.3319 1.03628,-1.3319 c -0.102018,0 -0.184763,0.02891 -0.249028,0.08675 -0.063464,0.05704 -0.102423,0.13898 -0.117282,0.245816 z"
             transform="matrix(1,0,0,1.00248,761.634,483.584)"
             id="path16"
             inkscape:connector-curvature="0"
             style="fill:#ffffff" />
          <path
             d="m 0.986483,-0.737452 c -0.109252,0 -0.191994,0.018878 -0.247418,0.056233 -0.054625,0.036552 -0.081938,0.090776 -0.081938,0.162269 0,0.066676 0.021689,0.118485 0.065871,0.155841 0.044986,0.037757 0.106846,0.056234 0.18637,0.056234 0.098402,0 0.181542,-0.035346 0.249022,-0.106033 0.06749,-0.070687 0.10123,-0.15906 0.10123,-0.265093 V -0.737448 Z M 1.7882,-0.936674 V 0 H 1.25962 v -0.242606 c -0.0707,0.099612 -0.15022,0.1719138 -0.23779,0.2168998 -0.08796,0.044986 -0.194396,0.0674789 -0.31972,0.0674789 -0.170299,0 -0.308475,-0.04900233 -0.414508,-0.1478107 -0.106034,-0.099612 -0.15906,-0.228149 -0.15906,-0.385594 0,-0.192798 0.065871,-0.334182 0.197619,-0.424154 C 0.458713,-1.00576 0.667171,-1.05075 0.951143,-1.05075 H 1.25962 v -0.04016 c 0,-0.08355 -0.03293,-0.1446 -0.098,-0.18316 -0.06548,-0.03855 -0.1679,-0.05783 -0.306878,-0.05783 -0.111658,0 -0.216097,0.01125 -0.313298,0.03373 -0.096399,0.0225 -0.185969,0.05623 -0.268312,0.10123 V -1.597 c 0.111257,-0.02651 0.223727,-0.04699 0.337389,-0.06105 0.113274,-0.01486 0.226936,-0.0225 0.340609,-0.0225 0.29562,0 0.5085,0.05864 0.63945,0.17513 0.13174,0.11688 0.19762,0.30647 0.19762,0.568749 z"
             transform="matrix(1,0,0,1.00248,763.668,483.584)"
             id="path18"
             inkscape:connector-curvature="0"
             style="fill:#ffffff" />
          <path
             d="m 0.824205,-2.10627 v 0.46592 H 1.36564 v 0.37434 H 0.824205 v 0.695681 c 0,0.076315 0.014861,0.128129 0.044985,0.155841 0.030929,0.026911 0.091579,0.040165 0.18155,0.040165 H 1.31905 V 2.26216e-5 H 0.870795 C 0.662739,2.26216e-5 0.515729,-0.0425531 0.428966,-0.128508 0.34301,-0.215268 0.300434,-0.362271 0.300434,-0.570337 V -1.26602 H 0.0401635 V -1.64036 H 0.300434 v -0.46592 z"
             transform="matrix(1,0,0,1.00248,765.692,483.584)"
             id="path20"
             inkscape:connector-curvature="0"
             style="fill:#ffffff" />
          <path
             d="m 1.88941,-0.824205 v 0.149416 H 0.66353 c 0.012854,0.123307 0.057036,0.215295 0.133355,0.276342 0.075913,0.061052 0.182349,0.091578 0.319715,0.091578 0.11007,0 0.22334,-0.016067 0.33901,-0.0482 0.11568,-0.032935 0.23457,-0.082741 0.35668,-0.149414 v 0.4048733 C 1.68778,-0.0522136 1.56366,-0.0168674 1.43956,0.00642348 1.31504,0.0297195 1.19132,0.0417696 1.06842,0.0417696 0.770386,0.0417696 0.53903,-0.032939 0.374345,-0.18316 0.210462,-0.33419 0.128532,-0.546257 0.128532,-0.819391 c 0,-0.266709 0.080734,-0.476369 0.242605,-0.629799 0.161467,-0.15424 0.38399,-0.23137 0.666763,-0.23137 0.25786,0 0.46432,0.07793 0.61855,0.23297 0.15504,0.15544 0.23296,0.3631 0.23296,0.623377 z M 1.35118,-0.999327 C 1.35118,-1.09895 1.32146,-1.17927 1.26282,-1.24032 1.20498,-1.30137 1.12946,-1.3319 1.03628,-1.3319 c -0.102018,0 -0.184763,0.02891 -0.249028,0.08675 -0.063464,0.05704 -0.102423,0.13898 -0.117282,0.245816 z"
             transform="matrix(1,0,0,1.00248,767.125,483.584)"
             id="path22"
             inkscape:connector-curvature="0"
             style="fill:#ffffff" />
          <path
             d="M 1.36727,-1.40099 V -2.27821 H 1.89584 V -2.0565e-5 H 1.36727 V -0.237803 C 1.29537,-0.1402 1.21624,-0.0691087 1.12949,-0.0241227 1.04271,0.0196581 0.941909,0.041749 0.827434,0.041749 c -0.202442,0 -0.368721,-0.079529 -0.498065,-0.239387 -0.129734,-0.160664 -0.194401,-0.367919 -0.194401,-0.621773 0,-0.252639 0.064668,-0.459509 0.194401,-0.620169 0.129334,-0.16066 0.295623,-0.241 0.498065,-0.241 0.113272,0 0.213676,0.02331 0.300446,0.0691 0.08757,0.04498 0.16749,0.11527 0.23939,0.21047 z m -0.34544,1.061976 c 0.11247,0 0.19802,-0.040568 0.25707,-0.122105 0.05864,-0.082341 0.08837,-0.20163 0.08837,-0.358284 0,-0.15504 -0.02973,-0.273937 -0.08837,-0.356677 -0.05905,-0.08235 -0.1446,-0.12371 -0.25707,-0.12371 -0.111653,0 -0.196813,0.04136 -0.255454,0.12371 -0.059045,0.08274 -0.088365,0.201627 -0.088365,0.356677 0,0.156644 0.02932,0.275941 0.088365,0.358284 0.058642,0.081537 0.143791,0.122105 0.255454,0.122105 z"
             transform="matrix(1,0,0,1.00248,769.159,483.584)"
             id="path24"
             inkscape:connector-curvature="0"
             style="fill:#ffffff" />
          <path
             d="m 1.1247,-0.339004 c 0.11247,0 0.19802,-0.040568 0.25706,-0.122105 0.05864,-0.082341 0.08838,-0.20163 0.08838,-0.358284 0,-0.15504 -0.02974,-0.273937 -0.08838,-0.356677 -0.05904,-0.08235 -0.14459,-0.12371 -0.25706,-0.12371 -0.11247,0 -0.198822,0.04136 -0.258666,0.12371 -0.06025,0.08274 -0.089972,0.201627 -0.089972,0.356677 0,0.155441 0.029722,0.274338 0.089972,0.35668 0.059847,0.082742 0.146216,0.123709 0.258666,0.123709 z M 0.776062,-1.40098 c 0.0727,-0.0952 0.153035,-0.16549 0.240998,-0.21047 0.08757,-0.04579 0.18838,-0.0691 0.30205,-0.0691 0.20245,0 0.36832,0.08034 0.49807,0.241 0.13053,0.16067 0.196,0.36753 0.196,0.62017 0,0.253854 -0.06547,0.461108 -0.196,0.621773 -0.12974,0.159862 -0.29562,0.2393869 -0.49807,0.2393869 -0.11367,0 -0.21448,-0.022493 -0.30205,-0.067479 C 0.9291,-0.0706851 0.848769,-0.141377 0.776062,-0.237776 V 7.19776e-6 H 0.252292 V -2.27818 h 0.52377 z"
             transform="matrix(1,0,0,1.00248,772.35,483.584)"
             id="path26"
             inkscape:connector-curvature="0"
             style="fill:#ffffff" />
          <path
             d="M 0.0369533,-1.64037 H 0.560724 L 1.00255,-0.526978 1.3769,-1.64037 H 1.90067 L 1.21143,0.155883 C 1.14153,0.337832 1.06081,0.46516 0.968816,0.538269 0.876434,0.610969 0.755135,0.647521 0.604106,0.647521 H 0.300453 V 0.303694 h 0.163882 c 0.088767,0 0.153436,-0.014459 0.194401,-0.04338 C 0.699305,0.232197 0.731035,0.181589 0.753529,0.10768 L 0.767988,0.0626945 Z"
             transform="matrix(1,0,0,1.00248,774.497,483.584)"
             id="path28"
             inkscape:connector-curvature="0"
             style="fill:#ffffff" />
          <path
             d="M 0.274738,-2.18668 H 1.79778 v 0.42575 H 0.838621 v 0.4081 H 1.73994 v 0.425759 H 0.838621 v 0.501273 H 1.82992 V -4.11301e-5 H 0.274687 Z"
             transform="matrix(1,0,0,1.00248,777.496,483.584)"
             id="path30"
             inkscape:connector-curvature="0"
             style="fill:#ffffff" />
          <path
             d="m 0.252241,-2.27819 h 0.52377 v 1.24027 L 1.38011,-1.64041 H 1.98902 L 1.18731,-0.886897 2.05168,-3.08475e-5 H 1.41705 L 0.776001,-0.684455 V -3.08475e-5 H 0.252229 Z"
             transform="matrix(1,0,0,1.00248,779.544,483.584)"
             id="path32"
             inkscape:connector-curvature="0"
             style="fill:#ffffff" />
          <path
             d="m 1.03308,-1.30465 c -0.116878,0 -0.205646,0.04178 -0.266704,0.12532 -0.061057,0.08356 -0.091578,0.203654 -0.091578,0.359897 0,0.157445 0.030527,0.277946 0.091578,0.361491 0.061051,0.083546 0.149816,0.125323 0.266704,0.125323 0.11328,0 0.20003,-0.041772 0.26027,-0.125323 0.06106,-0.083545 0.09158,-0.204046 0.09158,-0.361491 0,-0.156243 -0.03053,-0.276347 -0.09158,-0.359897 -0.06024,-0.08354 -0.147,-0.12532 -0.26027,-0.12532 z m 0,-0.37595 c 0.28157,0 0.50167,0.07673 0.66034,0.22976 0.15826,0.15223 0.23778,0.36269 0.23778,0.631407 0,0.269915 -0.07952,0.48119 -0.23778,0.633011 -0.15867,0.1522327 -0.37877,0.2281484 -0.66034,0.2281484 -0.283968,0 -0.50569,-0.0759137 -0.665151,-0.2281484 C 0.208066,-0.338254 0.128542,-0.549518 0.128542,-0.819433 0.128542,-1.08815 0.20807,-1.29862 0.367929,-1.45084 0.52739,-1.60387 0.749101,-1.6806 1.03308,-1.6806 Z"
             transform="matrix(1,0,0,1.00248,781.539,483.584)"
             id="path34"
             inkscape:connector-curvature="0"
             style="fill:#ffffff" />
          <path
             d="M 0.274738,-2.18668 H 1.21142 c 0.27834,0 0.49203,0.06226 0.64104,0.18637 0.14862,0.12331 0.22333,0.29883 0.22333,0.52698 0,0.22935 -0.07471,0.40607 -0.22333,0.530188 -0.14901,0.123308 -0.36269,0.184765 -0.64104,0.184765 H 0.838672 V -4.11301e-5 H 0.274738 Z m 0.563934,0.4081 v 0.61052 H 1.15197 c 0.10925,0 0.1932,-0.02611 0.25224,-0.07872 0.05985,-0.05342 0.08997,-0.12894 0.08997,-0.22654 0,-0.0972 -0.03012,-0.17231 -0.08997,-0.22492 C 1.34517,-1.75166 1.26122,-1.77858 1.15197,-1.77858 Z"
             transform="matrix(1,0,0,1.00248,784.643,483.584)"
             id="path36"
             inkscape:connector-curvature="0"
             style="fill:#ffffff" />
          <path
             d="M 0.234565,-0.637835 V -1.64038 h 0.526978 v 0.16388 c 0,0.08917 -8.03e-4,0.20083 -0.001607,0.33579 -0.001204,0.13416 -0.001606,0.223325 -0.001606,0.268311 0,0.131739 0.003213,0.226534 0.00964,0.284373 0.00723,0.057839 0.01928,0.100415 0.035346,0.126927 0.022493,0.034544 0.05061,0.06065 0.085151,0.078725 0.034141,0.018477 0.073906,0.027312 0.118883,0.027312 0.10925,0 0.1948,-0.041772 0.25707,-0.125322 C 1.32748,-0.56393 1.35921,-0.68041 1.35921,-0.830627 V -1.64038 H 1.88298 V -6.16951e-6 H 1.35921 V -0.237789 C 1.27968,-0.141391 1.19573,-0.0706985 1.10697,-0.0257125 1.01901,0.0192735 0.922202,0.0417666 0.816169,0.0417666 0.62658,0.0417666 0.481988,-0.0160726 0.382371,-0.131751 0.283562,-0.248231 0.23456,-0.416926 0.23456,-0.637846 Z"
             transform="matrix(1,0,0,1.00248,786.842,483.584)"
             id="path38"
             inkscape:connector-curvature="0"
             style="fill:#ffffff" />
          <path
             d="M 1.47009,-1.1937 C 1.4239,-1.21499 1.37852,-1.23065 1.33352,-1.24028 1.28854,-1.25074 1.24275,-1.25636 1.19696,-1.25636 c -0.13495,0 -0.238979,0.04338 -0.311677,0.13014 -0.073103,0.08595 -0.109252,0.209671 -0.109252,0.371137 V 4.42147e-5 H 0.252261 V -1.64033 h 0.52377 v 0.26992 C 0.84351,-1.47846 0.920624,-1.55719 1.00739,-1.6066 c 0.08756,-0.04899 0.1928,-0.0739 0.3149,-0.0739 0.01808,0 0.03736,0.00121 0.05784,0.00322 0.02008,0.0012 0.04981,0.00441 0.08836,0.00965 z"
             transform="matrix(1,0,0,1.00248,788.976,483.584)"
             id="path40"
             inkscape:connector-curvature="0"
             style="fill:#ffffff" />
          <path
             d="M 1.90062,-0.999337 V 0 H 1.37364 V -0.764762 C 1.37364,-0.906146 1.37043,-1.00335 1.364,-1.05718 1.35758,-1.1106 1.34673,-1.15036 1.33187,-1.17606 1.31138,-1.2102 1.28366,-1.2363 1.24833,-1.25479 1.21298,-1.27407 1.17281,-1.28371 1.12782,-1.28371 c -0.10925,0 -0.195602,0.04258 -0.258665,0.12693 C 0.806897,-1.07323 0.77597,-0.956353 0.77597,-0.806536 V 3.08475e-6 H 0.252199 V -1.64037 H 0.77597 v 0.23939 c 0.079127,-0.09519 0.16307,-0.16549 0.25224,-0.21047 0.08877,-0.04579 0.18678,-0.0691 0.29402,-0.0691 0.18958,0 0.33298,0.05865 0.43058,0.17514 0.0984,0.11567 0.14781,0.28436 0.14781,0.506089 z"
             transform="matrix(1,0,0,1.00248,790.456,483.584)"
             id="path42"
             inkscape:connector-curvature="0"
             style="fill:#ffffff" />
          <path
             d="m 1.03308,-1.30465 c -0.116878,0 -0.205646,0.04178 -0.266704,0.12532 -0.061057,0.08356 -0.091578,0.203654 -0.091578,0.359897 0,0.157445 0.030527,0.277946 0.091578,0.361491 0.061051,0.083546 0.149816,0.125323 0.266704,0.125323 0.11328,0 0.20003,-0.041772 0.26027,-0.125323 0.06106,-0.083545 0.09158,-0.204046 0.09158,-0.361491 0,-0.156243 -0.03053,-0.276347 -0.09158,-0.359897 -0.06024,-0.08354 -0.147,-0.12532 -0.26027,-0.12532 z m 0,-0.37595 c 0.28157,0 0.50167,0.07673 0.66034,0.22976 0.15826,0.15223 0.23778,0.36269 0.23778,0.631407 0,0.269915 -0.07952,0.48119 -0.23778,0.633011 -0.15867,0.1522327 -0.37877,0.2281484 -0.66034,0.2281484 -0.283968,0 -0.50569,-0.0759137 -0.665151,-0.2281484 C 0.208066,-0.338254 0.128542,-0.549518 0.128542,-0.819433 0.128542,-1.08815 0.20807,-1.29862 0.367929,-1.45084 0.52739,-1.60387 0.749101,-1.6806 1.03308,-1.6806 Z"
             transform="matrix(1,0,0,1.00248,792.591,483.584)"
             id="path44"
             inkscape:connector-curvature="0"
             style="fill:#ffffff" />
          <path
             d="m 1.77208,-1.36727 c 0.06628,-0.10162 0.14501,-0.17913 0.23618,-0.23296 0.09199,-0.05341 0.19281,-0.08033 0.30205,-0.08033 0.18838,0 0.33178,0.05864 0.43059,0.17513 0.0984,0.11567 0.14781,0.28437 0.14781,0.506088 V -5.14126e-6 H 2.36173 V -0.854739 -0.894904 c 8e-4,-0.013656 0.0016,-0.032936 0.0016,-0.057839 0,-0.116477 -0.01727,-0.200827 -0.05141,-0.252247 -0.03334,-0.05221 -0.08837,-0.07872 -0.16549,-0.07872 -0.0996,0 -0.17674,0.04137 -0.23136,0.12371 -0.05381,0.08153 -0.08153,0.200026 -0.08354,0.355065 V -9.25426e-6 H 1.30455 V -0.854743 C 1.30455,-1.0367 1.28889,-1.15357 1.25796,-1.20499 1.22663,-1.2572 1.17121,-1.28371 1.09087,-1.28371 c -0.100814,0 -0.178338,0.04137 -0.232959,0.12371 -0.054626,0.08274 -0.081938,0.200425 -0.081938,0.35346 V -1.02825e-6 H 0.248994 V -1.64037 h 0.526979 v 0.23939 c 0.064265,-0.09197 0.138175,-0.16147 0.221711,-0.20886 0.083546,-0.04699 0.175526,-0.0707 0.276346,-0.0707 0.11327,0 0.21367,0.02732 0.30043,0.08195 0.08677,0.05462 0.15264,0.13174 0.19762,0.23135 z"
             transform="matrix(1,0,0,1.00248,794.652,483.584)"
             id="path46"
             inkscape:connector-curvature="0"
             style="fill:#ffffff" />
          <path
             d="m 1.03308,-1.30465 c -0.116878,0 -0.205646,0.04178 -0.266704,0.12532 -0.061057,0.08356 -0.091578,0.203654 -0.091578,0.359897 0,0.157445 0.030527,0.277946 0.091578,0.361491 0.061051,0.083546 0.149816,0.125323 0.266704,0.125323 0.11328,0 0.20003,-0.041772 0.26027,-0.125323 0.06106,-0.083545 0.09158,-0.204046 0.09158,-0.361491 0,-0.156243 -0.03053,-0.276347 -0.09158,-0.359897 -0.06024,-0.08354 -0.147,-0.12532 -0.26027,-0.12532 z m 0,-0.37595 c 0.28157,0 0.50167,0.07673 0.66034,0.22976 0.15826,0.15223 0.23778,0.36269 0.23778,0.631407 0,0.269915 -0.07952,0.48119 -0.23778,0.633011 -0.15867,0.1522327 -0.37877,0.2281484 -0.66034,0.2281484 -0.283968,0 -0.50569,-0.0759137 -0.665151,-0.2281484 C 0.208066,-0.338254 0.128542,-0.549518 0.128542,-0.819433 0.128542,-1.08815 0.20807,-1.29862 0.367929,-1.45084 0.52739,-1.60387 0.749101,-1.6806 1.03308,-1.6806 Z"
             transform="matrix(1,0,0,1.00248,797.776,483.584)"
             id="path48"
             inkscape:connector-curvature="0"
             style="fill:#ffffff" />
          <path
             d="m 1.33189,-2.27819 v 0.34382 h -0.2908 c -0.073901,0 -0.126122,0.01366 -0.155838,0.04017 -0.028919,0.02691 -0.04338,0.07351 -0.04338,0.13978 v 0.11407 H 1.29012 v 0.37434 H 0.841872 V -1.85085e-5 H 0.318102 V -1.26601 H 0.0578309 V -1.64035 H 0.318102 v -0.11407 c 0,-0.17875 0.049806,-0.31048 0.149415,-0.39524 0.099611,-0.08555 0.253855,-0.12853 0.462713,-0.12853 z"
             transform="matrix(1,0,0,1.00248,757.954,486.591)"
             id="path50"
             inkscape:connector-curvature="0"
             style="fill:#ffffff" />
          <path
             d="M 1.47009,-1.1937 C 1.4239,-1.21499 1.37852,-1.23065 1.33352,-1.24028 1.28854,-1.25074 1.24275,-1.25636 1.19696,-1.25636 c -0.13495,0 -0.238979,0.04338 -0.311677,0.13014 -0.073103,0.08595 -0.109252,0.209671 -0.109252,0.371137 V 4.42147e-5 H 0.252261 V -1.64033 h 0.52377 v 0.26992 C 0.84351,-1.47846 0.920624,-1.55719 1.00739,-1.6066 c 0.08756,-0.04899 0.1928,-0.0739 0.3149,-0.0739 0.01808,0 0.03736,0.00121 0.05784,0.00322 0.02008,0.0012 0.04981,0.00441 0.08836,0.00965 z"
             transform="matrix(1,0,0,1.00248,759.258,486.591)"
             id="path52"
             inkscape:connector-curvature="0"
             style="fill:#ffffff" />
          <path
             d="m 1.03308,-1.30465 c -0.116878,0 -0.205646,0.04178 -0.266704,0.12532 -0.061057,0.08356 -0.091578,0.203654 -0.091578,0.359897 0,0.157445 0.030527,0.277946 0.091578,0.361491 0.061051,0.083546 0.149816,0.125323 0.266704,0.125323 0.11328,0 0.20003,-0.041772 0.26027,-0.125323 0.06106,-0.083545 0.09158,-0.204046 0.09158,-0.361491 0,-0.156243 -0.03053,-0.276347 -0.09158,-0.359897 -0.06024,-0.08354 -0.147,-0.12532 -0.26027,-0.12532 z m 0,-0.37595 c 0.28157,0 0.50167,0.07673 0.66034,0.22976 0.15826,0.15223 0.23778,0.36269 0.23778,0.631407 0,0.269915 -0.07952,0.48119 -0.23778,0.633011 -0.15867,0.1522327 -0.37877,0.2281484 -0.66034,0.2281484 -0.283968,0 -0.50569,-0.0759137 -0.665151,-0.2281484 C 0.208066,-0.338254 0.128542,-0.549518 0.128542,-0.819433 0.128542,-1.08815 0.20807,-1.29862 0.367929,-1.45084 0.52739,-1.60387 0.749101,-1.6806 1.03308,-1.6806 Z"
             transform="matrix(1,0,0,1.00248,760.738,486.591)"
             id="path54"
             inkscape:connector-curvature="0"
             style="fill:#ffffff" />
          <path
             d="m 1.77208,-1.36727 c 0.06628,-0.10162 0.14501,-0.17913 0.23618,-0.23296 0.09199,-0.05341 0.19281,-0.08033 0.30205,-0.08033 0.18838,0 0.33178,0.05864 0.43059,0.17513 0.0984,0.11567 0.14781,0.28437 0.14781,0.506088 V -5.14126e-6 H 2.36173 V -0.854739 -0.894904 c 8e-4,-0.013656 0.0016,-0.032936 0.0016,-0.057839 0,-0.116477 -0.01727,-0.200827 -0.05141,-0.252247 -0.03334,-0.05221 -0.08837,-0.07872 -0.16549,-0.07872 -0.0996,0 -0.17674,0.04137 -0.23136,0.12371 -0.05381,0.08153 -0.08153,0.200026 -0.08354,0.355065 V -9.25426e-6 H 1.30455 V -0.854743 C 1.30455,-1.0367 1.28889,-1.15357 1.25796,-1.20499 1.22663,-1.2572 1.17121,-1.28371 1.09087,-1.28371 c -0.100814,0 -0.178338,0.04137 -0.232959,0.12371 -0.054626,0.08274 -0.081938,0.200425 -0.081938,0.35346 V -1.02825e-6 H 0.248994 V -1.64037 h 0.526979 v 0.23939 c 0.064265,-0.09197 0.138175,-0.16147 0.221711,-0.20886 0.083546,-0.04699 0.175526,-0.0707 0.276346,-0.0707 0.11327,0 0.21367,0.02732 0.30043,0.08195 0.08677,0.05462 0.15264,0.13174 0.19762,0.23135 z"
             transform="matrix(1,0,0,1.00248,762.798,486.591)"
             id="path56"
             inkscape:connector-curvature="0"
             style="fill:#ffffff" />
          <path
             d="m 0.824205,-2.10627 v 0.46592 H 1.36564 v 0.37434 H 0.824205 v 0.695681 c 0,0.076315 0.014861,0.128129 0.044985,0.155841 0.030929,0.026911 0.091579,0.040165 0.18155,0.040165 H 1.31905 V 2.26216e-5 H 0.870795 C 0.662739,2.26216e-5 0.515729,-0.0425531 0.428966,-0.128508 0.34301,-0.215268 0.300434,-0.362271 0.300434,-0.570337 V -1.26602 H 0.0401635 V -1.64036 H 0.300434 v -0.46592 z"
             transform="matrix(1,0,0,1.00248,766.967,486.591)"
             id="path58"
             inkscape:connector-curvature="0"
             style="fill:#ffffff" />
          <path
             d="M 1.90062,-0.999337 V 0 H 1.37364 V -0.761543 C 1.37364,-0.904933 1.37043,-1.00335 1.364,-1.05717 1.35758,-1.11059 1.34673,-1.15036 1.33187,-1.17605 1.31138,-1.21019 1.28366,-1.23629 1.24833,-1.25478 1.21298,-1.27406 1.17281,-1.2837 1.12782,-1.2837 c -0.10925,0 -0.195602,0.04258 -0.258665,0.12693 C 0.806897,-1.07322 0.77597,-0.956343 0.77597,-0.806526 V 1.33673e-5 H 0.252199 V -2.27818 H 0.77597 v 0.87722 c 0.079127,-0.0952 0.16307,-0.16549 0.25224,-0.21047 0.08877,-0.04579 0.18678,-0.0691 0.29402,-0.0691 0.18958,0 0.33298,0.05865 0.43058,0.17513 0.0984,0.11567 0.14781,0.28438 0.14781,0.5061 z"
             transform="matrix(1,0,0,1.00248,768.4,486.591)"
             id="path60"
             inkscape:connector-curvature="0"
             style="fill:#ffffff" />
          <path
             d="m 1.88941,-0.824205 v 0.149416 H 0.66353 c 0.012854,0.123307 0.057036,0.215295 0.133355,0.276342 0.075913,0.061052 0.182349,0.091578 0.319715,0.091578 0.11007,0 0.22334,-0.016067 0.33901,-0.0482 0.11568,-0.032935 0.23457,-0.082741 0.35668,-0.149414 v 0.4048733 C 1.68778,-0.0522136 1.56366,-0.0168674 1.43956,0.00642348 1.31504,0.0297195 1.19132,0.0417696 1.06842,0.0417696 0.770386,0.0417696 0.53903,-0.032939 0.374345,-0.18316 0.210462,-0.33419 0.128532,-0.546257 0.128532,-0.819391 c 0,-0.266709 0.080734,-0.476369 0.242605,-0.629799 0.161467,-0.15424 0.38399,-0.23137 0.666763,-0.23137 0.25786,0 0.46432,0.07793 0.61855,0.23297 0.15504,0.15544 0.23296,0.3631 0.23296,0.623377 z M 1.35118,-0.999327 C 1.35118,-1.09895 1.32146,-1.17927 1.26282,-1.24032 1.20498,-1.30137 1.12946,-1.3319 1.03628,-1.3319 c -0.102018,0 -0.184763,0.02891 -0.249028,0.08675 -0.063464,0.05704 -0.102423,0.13898 -0.117282,0.245816 z"
             transform="matrix(1,0,0,1.00248,770.536,486.591)"
             id="path62"
             inkscape:connector-curvature="0"
             style="fill:#ffffff" />
          <path
             d="M 0.274738,-2.18668 H 0.904543 L 1.69984,-0.687694 V -2.18668 h 0.535 V 0 H 1.60503 L 0.809747,-1.50062 V 0 H 0.274738 Z"
             transform="matrix(1,0,0,1.00248,773.614,486.591)"
             id="path64"
             inkscape:connector-curvature="0"
             style="fill:#ffffff" />
          <path
             d="m 1.03308,-1.30465 c -0.116878,0 -0.205646,0.04178 -0.266704,0.12532 -0.061057,0.08356 -0.091578,0.203654 -0.091578,0.359897 0,0.157445 0.030527,0.277946 0.091578,0.361491 0.061051,0.083546 0.149816,0.125323 0.266704,0.125323 0.11328,0 0.20003,-0.041772 0.26027,-0.125323 0.06106,-0.083545 0.09158,-0.204046 0.09158,-0.361491 0,-0.156243 -0.03053,-0.276347 -0.09158,-0.359897 -0.06024,-0.08354 -0.147,-0.12532 -0.26027,-0.12532 z m 0,-0.37595 c 0.28157,0 0.50167,0.07673 0.66034,0.22976 0.15826,0.15223 0.23778,0.36269 0.23778,0.631407 0,0.269915 -0.07952,0.48119 -0.23778,0.633011 -0.15867,0.1522327 -0.37877,0.2281484 -0.66034,0.2281484 -0.283968,0 -0.50569,-0.0759137 -0.665151,-0.2281484 C 0.208066,-0.338254 0.128542,-0.549518 0.128542,-0.819433 0.128542,-1.08815 0.20807,-1.29862 0.367929,-1.45084 0.52739,-1.60387 0.749101,-1.6806 1.03308,-1.6806 Z"
             transform="matrix(1,0,0,1.00248,776.124,486.591)"
             id="path66"
             inkscape:connector-curvature="0"
             style="fill:#ffffff" />
          <path
             d="M 0.234565,-0.637835 V -1.64038 h 0.526978 v 0.16388 c 0,0.08917 -8.03e-4,0.20083 -0.001607,0.33579 -0.001204,0.13416 -0.001606,0.223325 -0.001606,0.268311 0,0.131739 0.003213,0.226534 0.00964,0.284373 0.00723,0.057839 0.01928,0.100415 0.035346,0.126927 0.022493,0.034544 0.05061,0.06065 0.085151,0.078725 0.034141,0.018477 0.073906,0.027312 0.118883,0.027312 0.10925,0 0.1948,-0.041772 0.25707,-0.125322 C 1.32748,-0.56393 1.35921,-0.68041 1.35921,-0.830627 V -1.64038 H 1.88298 V -6.16951e-6 H 1.35921 V -0.237789 C 1.27968,-0.141391 1.19573,-0.0706985 1.10697,-0.0257125 1.01901,0.0192735 0.922202,0.0417666 0.816169,0.0417666 0.62658,0.0417666 0.481988,-0.0160726 0.382371,-0.131751 0.283562,-0.248231 0.23456,-0.416926 0.23456,-0.637846 Z"
             transform="matrix(1,0,0,1.00248,778.184,486.591)"
             id="path68"
             inkscape:connector-curvature="0"
             style="fill:#ffffff" />
          <path
             d="M 1.90062,-0.999337 V 0 H 1.37364 V -0.764762 C 1.37364,-0.906146 1.37043,-1.00335 1.364,-1.05718 1.35758,-1.1106 1.34673,-1.15036 1.33187,-1.17606 1.31138,-1.2102 1.28366,-1.2363 1.24833,-1.25479 1.21298,-1.27407 1.17281,-1.28371 1.12782,-1.28371 c -0.10925,0 -0.195602,0.04258 -0.258665,0.12693 C 0.806897,-1.07323 0.77597,-0.956353 0.77597,-0.806536 V 3.08475e-6 H 0.252199 V -1.64037 H 0.77597 v 0.23939 c 0.079127,-0.09519 0.16307,-0.16549 0.25224,-0.21047 0.08877,-0.04579 0.18678,-0.0691 0.29402,-0.0691 0.18958,0 0.33298,0.05865 0.43058,0.17514 0.0984,0.11567 0.14781,0.28436 0.14781,0.506089 z"
             transform="matrix(1,0,0,1.00248,780.319,486.591)"
             id="path70"
             inkscape:connector-curvature="0"
             style="fill:#ffffff" />
          <path
             d="M 0.274738,-2.18668 H 1.21142 c 0.27834,0 0.49203,0.06226 0.64104,0.18637 0.14862,0.12331 0.22333,0.29883 0.22333,0.52698 0,0.22935 -0.07471,0.40607 -0.22333,0.530188 -0.14901,0.123308 -0.36269,0.184765 -0.64104,0.184765 H 0.838672 V -4.11301e-5 H 0.274738 Z m 0.563934,0.4081 v 0.61052 H 1.15197 c 0.10925,0 0.1932,-0.02611 0.25224,-0.07872 0.05985,-0.05342 0.08997,-0.12894 0.08997,-0.22654 0,-0.0972 -0.03012,-0.17231 -0.08997,-0.22492 C 1.34517,-1.75166 1.26122,-1.77858 1.15197,-1.77858 Z"
             transform="matrix(1,0,0,1.00248,783.498,486.591)"
             id="path72"
             inkscape:connector-curvature="0"
             style="fill:#ffffff" />
          <path
             d="M 1.47009,-1.1937 C 1.4239,-1.21499 1.37852,-1.23065 1.33352,-1.24028 1.28854,-1.25074 1.24275,-1.25636 1.19696,-1.25636 c -0.13495,0 -0.238979,0.04338 -0.311677,0.13014 -0.073103,0.08595 -0.109252,0.209671 -0.109252,0.371137 V 4.42147e-5 H 0.252261 V -1.64033 h 0.52377 v 0.26992 C 0.84351,-1.47846 0.920624,-1.55719 1.00739,-1.6066 c 0.08756,-0.04899 0.1928,-0.0739 0.3149,-0.0739 0.01808,0 0.03736,0.00121 0.05784,0.00322 0.02008,0.0012 0.04981,0.00441 0.08836,0.00965 z"
             transform="matrix(1,0,0,1.00248,785.697,486.591)"
             id="path74"
             inkscape:connector-curvature="0"
             style="fill:#ffffff" />
          <path
             d="m 1.03308,-1.30465 c -0.116878,0 -0.205646,0.04178 -0.266704,0.12532 -0.061057,0.08356 -0.091578,0.203654 -0.091578,0.359897 0,0.157445 0.030527,0.277946 0.091578,0.361491 0.061051,0.083546 0.149816,0.125323 0.266704,0.125323 0.11328,0 0.20003,-0.041772 0.26027,-0.125323 0.06106,-0.083545 0.09158,-0.204046 0.09158,-0.361491 0,-0.156243 -0.03053,-0.276347 -0.09158,-0.359897 -0.06024,-0.08354 -0.147,-0.12532 -0.26027,-0.12532 z m 0,-0.37595 c 0.28157,0 0.50167,0.07673 0.66034,0.22976 0.15826,0.15223 0.23778,0.36269 0.23778,0.631407 0,0.269915 -0.07952,0.48119 -0.23778,0.633011 -0.15867,0.1522327 -0.37877,0.2281484 -0.66034,0.2281484 -0.283968,0 -0.50569,-0.0759137 -0.665151,-0.2281484 C 0.208066,-0.338254 0.128542,-0.549518 0.128542,-0.819433 0.128542,-1.08815 0.20807,-1.29862 0.367929,-1.45084 0.52739,-1.60387 0.749101,-1.6806 1.03308,-1.6806 Z"
             transform="matrix(1,0,0,1.00248,787.175,486.591)"
             id="path76"
             inkscape:connector-curvature="0"
             style="fill:#ffffff" />
          <path
             d="m 0.252241,-1.64037 h 0.52377 v 1.6114762 c 0,0.2193058 -0.053019,0.3871978 -0.15906,0.5028768 C 0.51172,0.589661 0.359086,0.6475 0.15906,0.6475 H -0.0996067 V 0.303674 h 0.09157812 C 0.0915832,0.303674 0.159463,0.28118 0.196018,0.236195 0.233372,0.191208 0.252251,0.10284 0.252251,-0.028899 Z m 0,-0.63783 h 0.52377 v 0.42736 h -0.52377 z"
             transform="matrix(1,0,0,1.00248,789.235,486.591)"
             id="path78"
             inkscape:connector-curvature="0"
             style="fill:#ffffff" />
          <path
             d="m 1.88941,-0.824205 v 0.149416 H 0.66353 c 0.012854,0.123307 0.057036,0.215295 0.133355,0.276342 0.075913,0.061052 0.182349,0.091578 0.319715,0.091578 0.11007,0 0.22334,-0.016067 0.33901,-0.0482 0.11568,-0.032935 0.23457,-0.082741 0.35668,-0.149414 v 0.4048733 C 1.68778,-0.0522136 1.56366,-0.0168674 1.43956,0.00642348 1.31504,0.0297195 1.19132,0.0417696 1.06842,0.0417696 0.770386,0.0417696 0.53903,-0.032939 0.374345,-0.18316 0.210462,-0.33419 0.128532,-0.546257 0.128532,-0.819391 c 0,-0.266709 0.080734,-0.476369 0.242605,-0.629799 0.161467,-0.15424 0.38399,-0.23137 0.666763,-0.23137 0.25786,0 0.46432,0.07793 0.61855,0.23297 0.15504,0.15544 0.23296,0.3631 0.23296,0.623377 z M 1.35118,-0.999327 C 1.35118,-1.09895 1.32146,-1.17927 1.26282,-1.24032 1.20498,-1.30137 1.12946,-1.3319 1.03628,-1.3319 c -0.102018,0 -0.184763,0.02891 -0.249028,0.08675 -0.063464,0.05704 -0.102423,0.13898 -0.117282,0.245816 z"
             transform="matrix(1,0,0,1.00248,790.264,486.591)"
             id="path80"
             inkscape:connector-curvature="0"
             style="fill:#ffffff" />
          <path
             d="M 1.57775,-1.58896 V -1.1616 C 1.50586,-1.20978 1.43396,-1.24555 1.36245,-1.26924 1.29056,-1.29254 1.21625,-1.3046 1.13913,-1.3046 c -0.147012,0 -0.261086,0.04299 -0.342215,0.12854 -0.081537,0.08475 -0.122104,0.203648 -0.122104,0.356683 0,0.154237 0.040567,0.274337 0.122104,0.359888 0.081135,0.08475 0.195203,0.126927 0.342215,0.126927 0.08234,0 0.15986,-0.01205 0.23296,-0.036953 0.0739,-0.024501 0.14218,-0.060249 0.20565,-0.107648 v 0.4289761 C 1.49499,-0.0180622 1.41145,0.00402868 1.3271,0.019292 1.24356,0.0341534 1.1588,0.041785 1.07324,0.041785 c -0.295614,0 -0.526971,-0.0755126 -0.694062,-0.226534 -0.167091,-0.151832 -0.250636,-0.363507 -0.250636,-0.634626 0,-0.269915 0.083545,-0.480785 0.250636,-0.633015 0.167091,-0.15183 0.398448,-0.22815 0.694062,-0.22815 0.08555,0 0.17031,0.00804 0.25386,0.02411 0.08355,0.01526 0.16709,0.03775 0.25064,0.06747 z"
             transform="matrix(1,0,0,1.00248,792.298,486.591)"
             id="path82"
             inkscape:connector-curvature="0"
             style="fill:#ffffff" />
          <path
             d="m 0.824205,-2.10627 v 0.46592 H 1.36564 v 0.37434 H 0.824205 v 0.695681 c 0,0.076315 0.014861,0.128129 0.044985,0.155841 0.030929,0.026911 0.091579,0.040165 0.18155,0.040165 H 1.31905 V 2.26216e-5 H 0.870795 C 0.662739,2.26216e-5 0.515729,-0.0425531 0.428966,-0.128508 0.34301,-0.215268 0.300434,-0.362271 0.300434,-0.570337 V -1.26602 H 0.0401635 V -1.64036 H 0.300434 v -0.46592 z"
             transform="matrix(1,0,0,1.00248,794.075,486.591)"
             id="path84"
             inkscape:connector-curvature="0"
             style="fill:#ffffff" />
        </g>
      </g>
    </g>
    <path
       d="m 33.1866,89.1879 h 58.0742 c 2.7508,0 5.3884,-1.093 7.3336,-3.0376 1.9446,-1.9451 3.0376,-4.5827 3.0376,-7.3335 V 20.7425 c 0,-2.7507 -1.093,-5.3883 -3.0376,-7.3335 -1.9452,-1.9445 -4.5828,-3.0376 -7.3336,-3.0376 H 33.1866 c -2.7509,0 -5.3885,1.0931 -7.3335,3.0376 -1.9447,1.9452 -3.0376,4.5828 -3.0376,7.3335 v 58.0743 c 0,2.7508 1.093,5.3884 3.0376,7.3335 1.945,1.9446 4.5826,3.0376 7.3335,3.0376 z M 26.9642,20.7418 c 0,-1.6507 0.6555,-3.2334 1.8223,-4.4001 1.1666,-1.1666 2.7493,-1.8223 4.4001,-1.8223 h 58.0742 c 1.6507,0 3.2335,0.6557 4.4002,1.8223 1.1665,1.1667 1.8222,2.7494 1.8222,4.4001 v 58.0743 c 0,1.6508 -0.6556,3.2335 -1.8222,4.4001 -1.1668,1.1666 -2.7495,1.8223 -4.4002,1.8223 H 33.1866 c -1.6508,0 -3.2336,-0.6556 -4.4001,-1.8223 -1.1667,-1.1667 -1.8223,-2.7494 -1.8223,-4.4001 z"
       transform="matrix(1,0,0,1.00689,725.166,395.626)"
       id="path92"
       inkscape:connector-curvature="0"
       style="fill:#ffffff" />
  </g>
</svg>
