﻿adm2_fr;adm2_pcode;adm1_fr;adm1_pcode;surf_km2;pop_count;ind1_RNI;ind1_missingvalues;ind2_RCI;ind2_missingvalues;ind4_GT;ind4_missingvalues;ind7_PA;ind7_missingvalues;ind8_MI;ind8_missingvalues;ind10_SCAw;ind10_missingvalues;ind11_TR;ind11_missingvalues;LVI;LVI_missingvalues
Abala;NER006001;Tillabéri;NER006;12393,41437;185816,375;0,014694107;0;0,942821041;0;0;0;0,354811026;0;0,132867133;0;0,133472598;0;0,848539456;0;0,653256377;0
Abalak;NER005001;Tahoua;NER005;13962,60021;614398,8125;0,023437451;0;0,064282421;0;0,448597675;0;0,488336108;0;0;0;0,171980176;0;0,763137733;0;0,720032634;0
Aderbissinat;NER001001;Agadez;NER001;51384,10996;59353,42188;0,009345652;0;0,516954462;0;0,457077062;0;0,516433911;0;0,432034632;1;0,331359598;0;0,640600344;0;0,58517062;1
Aguié;NER004001;Maradi;NER004;1752,492845;288621,6563;0,130396858;0;0,566948596;0;0,920251611;0;0,795892315;0;0;0;0,172063539;0;0,989857345;0;0,489227105;0
Arlit;NER001002;Agadez;NER001;61176,24509;131610,125;0,010950257;0;0,30420338;0;0,971988893;0;0,846655715;0;0,296103896;0;0,212335788;0;0,610292417;0;0,535352808;0
Ayerou;NER006002;Tillabéri;NER006;3037,016273;99121,51563;0,027802433;0;0,823588049;0;0,856971032;0;0,479470667;0;0;0;0,276483966;0;0,895974062;0;0,519958542;0
Bagaroua;NER005002;Tahoua;NER005;3061,898731;98290,63281;0,048315179;0;0,512097237;0;0,38024648;0;0,55130921;0;0;0;0,117000737;0;0,951523821;0;0,634215334;0
Balleyara;NER006003;Tillabéri;NER006;1399,155839;114106,8438;0,112785599;0;0,517701769;0;0,593979717;0;0,818505004;0;0,040482955;0;0,121947493;0;0,840719429;0;0,564839719;0
Banibangou;NER006004;Tillabéri;NER006;6448,859165;97633,10938;0,043040457;0;0,855466621;0;0,784599322;0;0,647377885;0;0;0;0,109430844;0;0,868440232;0;0,527377806;0
Bankilaré;NER006005;Tillabéri;NER006;1432,595578;98575,23438;0,042290015;0;0,822823526;0;0,687200486;0;0,334212571;0;0,084759184;1;0,051301627;0;0,937513166;0;0,577128489;1
Belbedji;NER007001;Zinder;NER007;9172,517154;123344,7031;0,01692867;0;0,301309759;0;0,464391293;0;0,236676516;0;0;0;0,00534128;0;0,894272966;0;0,725868502;0
Bermo;NER004002;Maradi;NER004;5675,253603;154780,2656;0;0;0,667735625;1;0,843357152;1;0,008710594;0;0,097329866;1;0,049496264;0;0,790392285;0;0,648996888;3
Bilma;NER001003;Agadez;NER001;277685,2806;18754,69727;0,006307598;0;0,532731834;1;1;0;0,895957298;0;0,432034632;1;0,624308245;0;0,238478893;0;0,467168786;2
Birni N'Konni;NER005003;Tahoua;NER005;3166,158479;440613,875;0,104031514;0;0,295767738;0;0,991048288;0;0,883410389;0;0,154425045;0;0,289249036;0;0,7878802;0;0,499169684;0
Boboye;NER003001;Dosso;NER003;3055,967933;327680,2188;0,12458807;0;0,159425832;0;0,860989578;0;0,816288421;0;0,174668029;0;0,110722505;0;0,917532207;0;0,547969337;0
Bosso;NER002001;Diffa;NER002;1782,08783;129281,1328;0,002669605;0;0,564308323;1;0,516404653;0;0,325264093;0;0,103636364;1;0,21876957;0;0,96402878;0;0,614988373;2
Bouza;NER005004;Tahoua;NER005;3619,660447;624899,25;0,125095708;0;0,770115615;0;0,481786206;0;0,762393539;0;0;0;0,101268254;0;0,464133221;0;0,613601065;0
Dakoro;NER004003;Maradi;NER004;10729,12815;826002,8125;0,045685478;0;0,653952772;0;0,464639497;0;0,459612532;0;0,0537905;0;0,098045785;0;0,868332968;0;0,62227721;0
Damagaram Takaya;NER007002;Zinder;NER007;5181,21559;490200,375;0,031619913;0;0,51732647;0;0,678486645;0;0,336689475;0;0;0;0,067979293;0;0,639195851;0;0,675528907;0
Diffa;NER002002;Diffa;NER002;5363,64727;211154,125;0,03301954;0;0,680280369;0;0,972304647;0;0,653664598;0;0,310909091;0;0,186535921;0;0,928124764;0;0,462165867;0
Dioundiou;NER003002;Dosso;NER003;1575,919636;141769,1875;0,136036994;0;0,497821362;0;0,694408858;0;0,873171013;0;0,058884298;0;0,065170862;0;0,928240898;0;0,535180817;0
Dogondoutchi;NER003003;Dosso;NER003;8206,586869;475104,0313;0,067142617;0;0,393433184;0;0,952460168;0;0,713012905;0;0,13174114;0;0,181436454;0;0,873606495;0;0,526738148;0
Dosso;NER003004;Dosso;NER003;8937,897686;630280,25;0,092258674;0;0,494473096;0;0,989436259;0;0,732585534;0;0,093366093;0;0,188203968;0;0,959133044;0;0,492934762;0
Dungass;NER007003;Zinder;NER007;4288,459173;480461,1875;0,039259832;0;0,516355096;0;0,876565833;0;0,341042795;0;0;0;0,017339496;0;0,9727351;0;0,605243121;0
Falmey;NER003005;Dosso;NER003;1542,12221;133555,7969;0,07775553;0;0;0;0,584994056;0;0,812019951;0;0;0;0,073184678;0;0,911405914;0;0,648662839;0
Filingué;NER006006;Tillabéri;NER006;10468,3816;397542,6563;0,045396557;0;0,472610571;0;0,27871582;0;0,728743025;0;0,051818182;0;0,093690683;0;0,793133564;0;0,647984514;0
Gaya;NER003006;Dosso;NER003;2469,981682;351569,0625;0,203542033;0;0,42432864;0;0,992521488;0;0,962309509;0;0,41075388;0;0,280927828;0;0,904061009;0;0,403079373;0
Gazaoua;NER004004;Maradi;NER004;973,6156385;271966,9375;0,215277434;0;0,744088612;0;0,871814129;0;0,953050985;0;0;0;0,113747281;0;0,963109876;0;0,448415955;0
Gothèye;NER006007;Tillabéri;NER006;4092,795935;338432,1875;0,077427719;0;0,902060397;0;0,715465747;0;0,630369335;0;0;0;0,071364543;0;0,764294464;0;0,548431114;0
Goudoumaria;NER002003;Diffa;NER002;7885,438328;132354,3281;0,017031961;0;0,408209205;0;0,560847303;0;0,250689885;0;0;0;0,044456892;0;0,844907242;0;0,696265359;0
Gouré;NER007004;Zinder;NER007;20728,11446;476550;0,017624857;0;0,789070256;0;0,995217999;0;0,219920963;0;0;0;0,044077612;0;0,556517609;0;0,625367243;0
Guidan Roumdji;NER004005;Maradi;NER004;4664,459666;817030,125;0,115527105;0;0,810686089;0;0,884825508;0;0,812460418;0;0,089341693;0;0,188746339;0;1;0;0,442630407;0
Iferouane;NER001004;Agadez;NER001;139608,5724;52933,12891;0,003152757;0;0,532731834;1;0,996494002;0;0,426350855;0;0;0;0,105052064;0;0;0;0,70517407;1
Illéla;NER005005;Tahoua;NER005;3606,668083;468960,6875;0,182335608;0;0,746500997;0;0,737757749;0;0,911749395;0;0;0;0,178103563;0;0,765022551;0;0,496932877;0
Ingall;NER001005;Agadez;NER001;61172,62276;76577,03125;0,00959722;0;0,73081085;0;0,506924378;0;0,495855276;0;0,432034632;1;0,144221241;0;0,880800497;0;0,542822272;1
Kantché;NER007005;Zinder;NER007;2197,873735;566704,0625;0,143642912;0;0,498083432;0;0,795261361;0;0,83562242;0;0,107954545;0;0,130303818;0;0,885058263;0;0,514867607;0
Keita;NER005006;Tahoua;NER005;3587,793528;466786,6875;0,163266548;0;0,58561829;0;0,70400888;0;0,92341011;0;0;0;0,140504173;0;0,180520884;0;0,614667302;0
Kollo;NER006008;Tillabéri;NER006;9112,489503;607514,5;0,088515292;0;0,606891093;0;0,864343316;0;0,771288384;0;0,059561129;0;0,155706171;0;0,863352141;0;0,512906068;0
Loga;NER003007;Dosso;NER003;2825,81256;216217,1406;0,082345404;0;0,418637526;0;0,687364341;0;0,639182578;0;0,037012987;0;0,115465776;0;0,918622711;0;0,585909811;0
Madaoua;NER005007;Tahoua;NER005;4498,097448;812722,75;0,093618697;0;0,913305973;0;0,648675809;0;0,702818671;0;0,062683284;0;0,119995942;0;0,731590587;0;0,532473005;0
Madarounfa;NER004006;Maradi;NER004;3666,489824;525280,75;0,108419001;0;0,654823586;0;0,850444777;0;0,713025896;0;0,135177866;0;0,092132333;0;0,985840038;0;0,494305215;0
Magaria;NER007006;Zinder;NER007;3909,647796;1001838,563;0,122305157;0;0,778592638;0;0,920171098;0;0,747429795;0;0,012763099;0;0,102049818;0;0,880979843;0;0,490815507;0
Maïné Soroa;NER002004;Diffa;NER002;7534,387274;192938,8594;0,018117075;0;0,168743717;0;0,989526232;0;0,323108938;0;0;0;0,110110444;0;0,788650743;0;0,657391836;0
Malbaza;NER005008;Tahoua;NER005;1456,347914;294831,3438;0,125350525;0;0,281357761;0;0,854965369;0;0,79337017;0;0,140810277;0;0,131871892;0;0,740907647;0;0,561623766;0
Ville de Maradi;NER004007;Maradi;NER004;73,97133785;391143,9063;1;0;0,879499158;0;0,956076481;0;1;0;0,461945032;0;1;0;0,979415722;0;0,103294801;0
Mayahi;NER004008;Maradi;NER004;6573,33525;711165,5625;0,058117414;0;0,48216993;0;0,813824799;0;0,503304011;0;0;0;0,069302737;0;0,88827697;0;0,597857734;0
Mirriah;NER007007;Zinder;NER007;3692,24881;614058,25;0,127559704;0;0,902174641;0;0,915093643;0;0,767555911;0;0,120819595;0;0,100565315;0;0,771491008;0;0,470677169;0
N'Gourti;NER002005;Diffa;NER002;113461,276;100276,3281;0,000773774;0;0,564308323;1;0,806848529;1;0,006438906;0;0,103636364;1;0,024086394;0;0,164601375;0;0,761329477;3
N'Guigmi;NER002006;Diffa;NER002;9783,057763;144465,875;0,018120857;0;1;0;0,995159812;0;0,658699517;0;0,103636364;1;0,360250761;0;0,849597082;0;0,430647944;1
Ville de Niamey;NER008001;Niamey;NER008;556,8673784;1354884,75;0,863738068;0;0,869834215;0;0,961730045;0;0,996473879;0;0,73923445;0;0,396103394;0;0,786569017;0;0,198045276;0
Ouallam;NER006009;Tillabéri;NER006;14449,61143;397753,8438;0,042305654;0;0,857875085;0;0,991242372;0;0,461750991;0;0,088578089;0;0,048657849;0;0,84576122;0;0,523404106;0
Say;NER006010;Tillabéri;NER006;6393,634972;228883,5781;0,053619211;0;0,876517859;0;0,725076349;0;0,634979878;0;0,049825175;0;0,085267124;0;0,840378121;0;0,533476612;0
Tahoua;NER005009;Tahoua;NER005;11597,81555;626520,8125;0,058820771;0;0,704461573;0;0,65997934;1;0,58441775;0;0,034545455;0;0,04715363;0;0,776179075;0;0,59063463;1
Takeita;NER007008;Zinder;NER007;3373,860532;287415,5313;0,069024738;0;0,421455631;0;0,778936643;0;0,433513329;0;0;0;0,025963048;0;0,854963683;0;0,630877561;0
Tanout;NER007009;Zinder;NER007;24312,51549;586911,625;0,025077582;0;0,759558256;0;0,995724666;0;0,412782243;0;0;0;0,093463508;0;0,838631435;0;0,553537473;0
Tassara;NER005010;Tahoua;NER005;29406,67503;29395,82813;1,71758E-05;0;0,566163507;1;0,65997934;1;0,082491393;0;0,068688555;1;0,173935753;0;0,880274936;0;0,65263562;3
Tchintabaraden;NER005011;Tahoua;NER005;10970,48995;299179,3125;0,011346295;0;0,647445409;0;0,358025149;0;0,303441463;0;0,068688555;1;0,163412908;0;0,742587337;0;0,672150412;1
Tchirozerine;NER001006;Agadez;NER001;30942,56636;331722,875;0,053103551;0;0,578958645;0;0,995978183;0;0,776825938;0;1;0;0,294653226;0;0,166540416;0;0,44770572;0
Téra;NER006011;Tillabéri;NER006;9367,939632;535536,5;0,070200651;0;0,785127562;0;0,966851449;0;0,627139241;0;0,10860098;0;0,057636465;0;0,873697735;0;0,501535131;0
Tesker;NER007010;Zinder;NER007;69250,242;49812,65625;0;0;0,622991471;1;0,840641756;1;0;0;0,053156438;1;0;0;0,433076039;0;0,721447757;3
Tessaoua;NER004009;Maradi;NER004;5240,167053;690602,625;0,067753411;0;0,549716258;0;0,984980417;0;0,587669455;0;0,038383838;0;0,045478853;0;0,829344473;0;0,556667613;0
Tibiri;NER003008;Dosso;NER003;2768,330696;321422,0313;0,168033097;0;0,332740698;0;0,6948935;0;0,89401897;0;0,033431085;0;0,125963991;0;0,891869269;0;0,55129277;0
Tillabéri;NER006012;Tillabéri;NER006;5136,394791;274104,3438;0,058613653;0;0,776884767;0;0,98930378;0;0,711978945;0;0,206355591;0;0,154533393;0;0,781105973;0;0,474460557;0
Tillia;NER005012;Tahoua;NER005;17630,57009;71157,42969;0;0;0,566163507;1;0,65997934;1;0;0;0,068688555;1;0,061248789;0;0,691006842;0;0,707558995;3
Torodi;NER006013;Tillabéri;NER006;6868,703672;257458,1406;0,030933394;0;0,942029997;0;0,809648928;0;0,339895661;0;0,279020979;0;0,089524699;0;0,872426644;0;0,519502814;0
Ville de Tahoua;NER005013;Tahoua;NER005;754,488335;208107,9688;0,198869657;0;0,706845565;0;0,994681793;0;0,981565928;0;0,294421488;0;0,587315288;0;0,835634945;0;0,342952191;0
Ville de Zinder;NER007011;Zinder;NER007;528,3279334;590400,75;0,395301359;0;0,745988526;0;0,986568384;0;0,994478956;0;0,290027137;0;0,799896246;0;0,882568056;0;0,272167334;0
